21:02:47.995: Using EGL/X11
21:02:47.995: CPU Name: AMD Ryzen 7 4800HS with Radeon Graphics
21:02:47.995: CPU Speed: 4292.273MHz
21:02:47.996: Physical Cores: 8, Logical Cores: 16
21:02:47.996: Physical Memory: 15405MB Total, 4694MB Free
21:02:47.996: Kernel Version: Linux 6.6.2-zen1-1-zen
21:02:47.996: Distribution: "Arch Linux" Unknown
21:02:47.996: Desktop Environment: Hyprland (hyprland)
21:02:47.996: Session Type: wayland
21:02:47.996: Window System: X11.0, Vendor: The X.Org Foundation, Version: 1.23.2
21:02:47.998: Qt Version: 6.6.0 (runtime), 6.6.0 (compiled)
21:02:47.998: Portable mode: false
21:02:48.083: OBS 30.0.0-1 (linux)
21:02:48.083: ---------------------------------
21:02:48.083: ---------------------------------
21:02:48.083: audio settings reset:
21:02:48.083: 	samples per sec: 48000
21:02:48.083: 	speakers:        2
21:02:48.083: 	max buffering:   960 milliseconds
21:02:48.083: 	buffering type:  dynamically increasing
21:02:48.084: ---------------------------------
21:02:48.084: Initializing OpenGL...
21:02:48.137: Loading up OpenGL on adapter AMD AMD Radeon Graphics (renoir, LLVM 16.0.6, DRM 3.54, 6.6.2-zen1-1-zen)
21:02:48.137: OpenGL loaded successfully, version 4.6 (Core Profile) Mesa 23.2.1-arch1.2, shading language 4.60
21:02:48.163: ---------------------------------
21:02:48.163: video settings reset:
21:02:48.163: 	base resolution:   1920x1080
21:02:48.163: 	output resolution: 1280x720
21:02:48.163: 	downscale filter:  Bicubic
21:02:48.163: 	fps:               60/1
21:02:48.163: 	format:            NV12
21:02:48.163: 	YUV mode:          Rec. 709/Partial
21:02:48.163: NV12 texture support not available
21:02:48.163: P010 texture support not available
21:02:48.168: Audio monitoring device:
21:02:48.168: 	name: Padrão
21:02:48.168: 	id: default
21:02:48.168: ---------------------------------
21:02:48.179: Failed to load 'en-US' text for module: 'decklink-captions.so'
21:02:48.190: Failed to load 'en-US' text for module: 'decklink-output-ui.so'
21:02:48.201: A DeckLink iterator could not be created.  The DeckLink drivers may not be installed
21:02:48.201: Failed to initialize module 'decklink.so'
21:02:48.363: [pipewire] No captures available
21:02:48.396: v4l2loopback not installed, virtual camera disabled
21:02:48.415: VAAPI: Failed to initialize display in vaapi_device_h264_supported
21:02:48.415: FFmpeg VAAPI H264 encoding not supported
21:02:48.415: VAAPI: Failed to initialize display in vaapi_device_hevc_supported
21:02:48.415: FFmpeg VAAPI HEVC encoding not supported
21:02:48.542: ---------------------------------
21:02:48.542:   Loaded Modules:
21:02:48.542:     wlrobs.so
21:02:48.543:     text-freetype2.so
21:02:48.543:     rtmp-services.so
21:02:48.543:     obs-x264.so
21:02:48.543:     obs-vst.so
21:02:48.543:     obs-transitions.so
21:02:48.543:     obs-qsv11.so
21:02:48.543:     obs-outputs.so
21:02:48.543:     obs-libfdk.so
21:02:48.543:     obs-filters.so
21:02:48.543:     obs-ffmpeg.so
21:02:48.543:     linux-v4l2.so
21:02:48.543:     linux-pulseaudio.so
21:02:48.543:     linux-pipewire.so
21:02:48.543:     linux-jack.so
21:02:48.543:     linux-capture.so
21:02:48.543:     linux-alsa.so
21:02:48.543:     image-source.so
21:02:48.543:     frontend-tools.so
21:02:48.543:     decklink-output-ui.so
21:02:48.543:     decklink-captions.so
21:02:48.543: ---------------------------------
21:02:48.543: ==== Startup complete ===============================================
21:02:48.574: All scene data cleared
21:02:48.574: ------------------------------------------------
21:02:48.579: pulse-input: Server name: 'PulseAudio (on PipeWire 0.3.85) 15.0.0'
21:02:48.579: pulse-input: Audio format: s32le, 48000 Hz, 2 channels
21:02:48.579: pulse-input: Started recording from 'alsa_output.pci-0000_04_00.6.analog-stereo.monitor' (default)
21:02:48.580: [Loaded global audio device]: 'Áudio do desktop'
21:02:48.580: pulse-input: Server name: 'PulseAudio (on PipeWire 0.3.85) 15.0.0'
21:02:48.580: pulse-input: Audio format: s32le, 48000 Hz, 2 channels
21:02:48.580: pulse-input: Started recording from 'alsa_input.pci-0000_04_00.6.analog-stereo' (default)
21:02:48.581: [Loaded global audio device]: 'Mic/Aux'
21:02:48.583: Switched to scene 'Window Capture'
21:02:48.583: ------------------------------------------------
21:02:48.583: Loaded scenes:
21:02:48.583: - scene 'Screen Capture':
21:02:48.583:     - source: 'Wayland output(scpy)' (wlrobs-scpy)
21:02:48.583: - scene 'Window Capture':
21:02:48.583: ------------------------------------------------
21:02:49.150: adding 21 milliseconds of audio buffering, total audio buffering is now 21 milliseconds (source: Áudio do desktop)
21:02:49.150: 
21:03:02.875: [window-capture: 'Captura de janela (Xcomposite)'] update settings:
21:03:02.875: 	title: Criar ou reutilizar fonte
21:03:02.875: 	class: obs
21:03:02.875: 
21:03:02.877: User added source 'Captura de janela (Xcomposite)' (xcomposite_input) to scene 'Window Capture'
21:03:02.902: [window-capture: 'Captura de janela (Xcomposite)'] update settings:
21:03:02.902: 	title: @-⃝⃤experibassmusic.eth - Discord
21:03:02.902: 	class: discord
21:03:02.902: 
21:03:23.285: [window-capture: 'Captura de janela (Xcomposite)'] update settings:
21:03:23.285: 	title: OBS 30.0.0-1 - Perfil: Sem nome - Cenas: Sem nome
21:03:23.285: 	class: obs
21:03:23.285: 
21:03:27.402: [window-capture: 'Captura de janela (Xcomposite)'] update settings:
21:03:27.402: 	title: @-⃝⃤experibassmusic.eth - Discord
21:03:27.402: 	class: discord
21:03:27.402: 
21:03:29.119: X Error: BadWindow (invalid Window parameter), Major opcode: BadValue (integer parameter out of range for operation), Minor opcode: 0, Serial: 4822
21:03:30.268: User switched to scene 'Screen Capture'
21:03:44.346: User Removed source 'Wayland output(scpy)' (wlrobs-scpy) from scene 'Screen Capture'
21:03:49.318: xshm-input: Geometry 1920x1080 @ 0,0
21:03:49.322: User added source 'Captura de Tela (XSHM)' (xshm_input) to scene 'Screen Capture'
21:03:58.829: User Removed source 'Captura de Tela (XSHM)' (xshm_input) from scene 'Screen Capture'
21:04:02.565: User added source 'Wayland output(scpy)' (wlrobs-scpy) to scene 'Screen Capture'
21:04:12.628: User switched to scene 'Window Capture'
21:04:15.618: User switched to scene 'Screen Capture'
21:04:16.379: User switched to scene 'Window Capture'
21:04:18.115: User switched to scene 'Screen Capture'
21:04:19.111: User switched to scene 'Window Capture'
21:05:22.772: ==== Shutting down ==================================================
21:05:22.793: pulse-input: Stopped recording from 'alsa_output.pci-0000_04_00.6.analog-stereo.monitor'
21:05:22.793: pulse-input: Got 6167 packets with 7400400 frames
21:05:22.794: pulse-input: Stopped recording from 'alsa_input.pci-0000_04_00.6.analog-stereo'
21:05:22.794: pulse-input: Got 6167 packets with 7400400 frames
21:05:22.816: Not all sources were cleared when clearing scene data:
21:05:22.816: 
21:05:22.816: - Captura de janela (Xcomposite)
21:05:22.816: 
21:05:22.859: X Error: BadWindow (invalid Window parameter), Major opcode: BadValue (integer parameter out of range for operation), Minor opcode: 0, Serial: 17435
21:05:22.867: [Scripting] Total detached callbacks: 0
21:05:22.867: Freeing OBS context data
21:05:22.890: == Profiler Results =============================
21:05:22.890: run_program_init: 706.193 ms
21:05:22.890:  ┣OBSApp::AppInit: 4.81 ms
21:05:22.891:  ┃ ┗OBSApp::InitLocale: 1.231 ms
21:05:22.891:  ┗OBSApp::OBSInit: 653.382 ms
21:05:22.891:    ┣obs_startup: 2.278 ms
21:05:22.891:    ┗OBSBasic::OBSInit: 565.958 ms
21:05:22.891:      ┣OBSBasic::InitBasicConfig: 0.083 ms
21:05:22.891:      ┣OBSBasic::ResetAudio: 0.298 ms
21:05:22.891:      ┣OBSBasic::ResetVideo: 84.889 ms
21:05:22.891:      ┃ ┗obs_init_graphics: 79.978 ms
21:05:22.891:      ┃   ┗shader compilation: 26.1 ms
21:05:22.891:      ┣OBSBasic::InitOBSCallbacks: 0.006 ms
21:05:22.891:      ┣OBSBasic::InitHotkeys: 0.029 ms
21:05:22.891:      ┣obs_load_all_modules2: 374.216 ms
21:05:22.891:      ┃ ┣obs_init_module(decklink-captions.so): 0.001 ms
21:05:22.891:      ┃ ┣obs_init_module(decklink-output-ui.so): 0.001 ms
21:05:22.891:      ┃ ┣obs_init_module(decklink.so): 0.142 ms
21:05:22.891:      ┃ ┣obs_init_module(frontend-tools.so): 71.282 ms
21:05:22.891:      ┃ ┣obs_init_module(image-source.so): 0.009 ms
21:05:22.891:      ┃ ┣obs_init_module(linux-alsa.so): 0.008 ms
21:05:22.891:      ┃ ┣obs_init_module(linux-capture.so): 0.708 ms
21:05:22.891:      ┃ ┣obs_init_module(linux-jack.so): 0.003 ms
21:05:22.891:      ┃ ┣obs_init_module(linux-pipewire.so): 18.184 ms
21:05:22.891:      ┃ ┣obs_init_module(linux-pulseaudio.so): 0.004 ms
21:05:22.891:      ┃ ┣obs_init_module(linux-v4l2.so): 6.69 ms
21:05:22.891:      ┃ ┣obs_init_module(obs-ffmpeg.so): 1.221 ms
21:05:22.891:      ┃ ┃ ┗nvenc_check: 0.79 ms
21:05:22.891:      ┃ ┣obs_init_module(obs-filters.so): 0.028 ms
21:05:22.891:      ┃ ┣obs_init_module(obs-libfdk.so): 0.002 ms
21:05:22.891:      ┃ ┣obs_init_module(obs-outputs.so): 0.004 ms
21:05:22.891:      ┃ ┣obs_init_module(obs-qsv11.so): 0.282 ms
21:05:22.891:      ┃ ┣obs_init_module(obs-transitions.so): 0.015 ms
21:05:22.891:      ┃ ┣obs_init_module(obs-vst.so): 0.006 ms
21:05:22.891:      ┃ ┣obs_init_module(obs-x264.so): 0.003 ms
21:05:22.891:      ┃ ┣obs_init_module(rtmp-services.so): 1.209 ms
21:05:22.891:      ┃ ┣obs_init_module(text-freetype2.so): 0.02 ms
21:05:22.891:      ┃ ┗obs_init_module(wlrobs.so): 0.02 ms
21:05:22.891:      ┣OBSBasic::InitService: 1.003 ms
21:05:22.891:      ┣OBSBasic::ResetOutputs: 0.168 ms
21:05:22.891:      ┣OBSBasic::CreateHotkeys: 0.022 ms
21:05:22.891:      ┣OBSBasic::InitPrimitives: 0.074 ms
21:05:22.891:      ┗OBSBasic::Load: 36.533 ms
21:05:22.891: obs_hotkey_thread(25 ms): min=0.086 ms, median=0.261 ms, max=3.809 ms, 99th percentile=0.855 ms, 100% below 25 ms
21:05:22.891: audio_thread(Audio): min=0.014 ms, median=0.075 ms, max=47.104 ms, 99th percentile=29.318 ms
21:05:22.891: obs_graphics_thread(16.6667 ms): min=0.216 ms, median=2.162 ms, max=84.505 ms, 99th percentile=50.376 ms, 90.4896% below 16.667 ms
21:05:22.891:  ┣tick_sources: min=0.001 ms, median=0.277 ms, max=28.729 ms, 99th percentile=2.713 ms
21:05:22.891:  ┣output_frame: min=0.105 ms, median=0.444 ms, max=58.298 ms, 99th percentile=33.266 ms
21:05:22.891:  ┃ ┗gs_context(video->graphics): min=0.102 ms, median=0.44 ms, max=58.295 ms, 99th percentile=33.263 ms
21:05:22.891:  ┃   ┣render_video: min=0.021 ms, median=0.144 ms, max=58.127 ms, 99th percentile=33.08 ms
21:05:22.891:  ┃   ┃ ┗render_main_texture: min=0.012 ms, median=0.135 ms, max=58.122 ms, 99th percentile=33.075 ms
21:05:22.891:  ┃   ┗gs_flush: min=0.003 ms, median=0.247 ms, max=0.891 ms, 99th percentile=0.451 ms
21:05:22.891:  ┗render_displays: min=0.004 ms, median=1.129 ms, max=51.863 ms, 99th percentile=28.588 ms
21:05:22.891: =================================================
21:05:22.891: == Profiler Time Between Calls ==================
21:05:22.891: obs_hotkey_thread(25 ms): min=25.149 ms, median=25.364 ms, max=28.888 ms, 80.7055% within ±2% of 25 ms (0% lower, 19.2945% higher)
21:05:22.891: obs_graphics_thread(16.6667 ms): min=5.14 ms, median=16.669 ms, max=84.514 ms, 87.5294% within ±2% of 16.667 ms (1.87882% lower, 10.5918% higher)
21:05:22.891: =================================================
21:05:22.907: Number of memory leaks: 0
