21:27:01.902: [Safe Mode] Unclean shutdown detected!
21:27:05.896: [Safe Mode] User elected to launch normally.
21:27:05.897: Platform: Wayland
21:27:05.897: CPU Name: AMD Ryzen 7 4800HS with Radeon Graphics
21:27:05.897: CPU Speed: 1579.811MHz
21:27:05.898: Physical Cores: 8, Logical Cores: 16
21:27:05.898: Physical Memory: 15405MB Total, 12875MB Free
21:27:05.898: Kernel Version: Linux 6.6.2-zen1-1-zen
21:27:05.898: Distribution: "Arch Linux" Unknown
21:27:05.898: Desktop Environment: Hyprland (hyprland)
21:27:05.898: Session Type: wayland
21:27:05.899: Qt Version: 6.6.0 (runtime), 6.6.0 (compiled)
21:27:05.899: Portable mode: false
21:27:05.918: OBS 30.0.0-1 (linux)
21:27:05.918: ---------------------------------
21:27:05.918: ---------------------------------
21:27:05.918: audio settings reset:
21:27:05.918: 	samples per sec: 48000
21:27:05.918: 	speakers:        2
21:27:05.918: 	max buffering:   960 milliseconds
21:27:05.918: 	buffering type:  dynamically increasing
21:27:05.920: ---------------------------------
21:27:05.920: Initializing OpenGL...
21:27:05.920: Using EGL/Wayland
21:27:05.920: Initialized EGL 1.5
21:27:05.938: Loading up OpenGL on adapter AMD AMD Radeon Graphics (renoir, LLVM 16.0.6, DRM 3.54, 6.6.2-zen1-1-zen)
21:27:05.939: OpenGL loaded successfully, version 4.6 (Core Profile) Mesa 23.2.1-arch1.2, shading language 4.60
21:27:05.968: ---------------------------------
21:27:05.968: video settings reset:
21:27:05.968: 	base resolution:   1920x1080
21:27:05.968: 	output resolution: 1280x720
21:27:05.968: 	downscale filter:  Bicubic
21:27:05.968: 	fps:               60/1
21:27:05.968: 	format:            NV12
21:27:05.968: 	YUV mode:          Rec. 709/Partial
21:27:05.968: NV12 texture support not available
21:27:05.968: P010 texture support not available
21:27:05.976: Audio monitoring device:
21:27:05.976: 	name: Padrão
21:27:05.976: 	id: default
21:27:05.976: ---------------------------------
21:27:05.990: Failed to load 'en-US' text for module: 'decklink-captions.so'
21:27:06.003: Failed to load 'en-US' text for module: 'decklink-output-ui.so'
21:27:06.016: A DeckLink iterator could not be created.  The DeckLink drivers may not be installed
21:27:06.016: Failed to initialize module 'decklink.so'
21:27:06.220: [pipewire] Available captures:
21:27:06.220: [pipewire]     - Desktop capture
21:27:06.220: [pipewire]     - Window capture
21:27:06.258: v4l2loopback not installed, virtual camera disabled
21:27:06.282: VAAPI: Failed to initialize display in vaapi_device_h264_supported
21:27:06.282: FFmpeg VAAPI H264 encoding not supported
21:27:06.282: VAAPI: Failed to initialize display in vaapi_device_hevc_supported
21:27:06.282: FFmpeg VAAPI HEVC encoding not supported
21:27:06.441: ---------------------------------
21:27:06.441:   Loaded Modules:
21:27:06.441:     wlrobs.so
21:27:06.441:     text-freetype2.so
21:27:06.441:     rtmp-services.so
21:27:06.441:     obs-x264.so
21:27:06.441:     obs-vst.so
21:27:06.441:     obs-transitions.so
21:27:06.442:     obs-qsv11.so
21:27:06.442:     obs-outputs.so
21:27:06.442:     obs-libfdk.so
21:27:06.442:     obs-filters.so
21:27:06.442:     obs-ffmpeg.so
21:27:06.442:     linux-v4l2.so
21:27:06.442:     linux-pulseaudio.so
21:27:06.442:     linux-pipewire.so
21:27:06.442:     linux-jack.so
21:27:06.442:     linux-capture.so
21:27:06.442:     linux-alsa.so
21:27:06.442:     image-source.so
21:27:06.442:     frontend-tools.so
21:27:06.442:     decklink-output-ui.so
21:27:06.442:     decklink-captions.so
21:27:06.442: ---------------------------------
21:27:06.442: ==== Startup complete ===============================================
21:27:06.477: All scene data cleared
21:27:06.477: ------------------------------------------------
21:27:06.481: pulse-input: Server name: 'PulseAudio (on PipeWire 0.3.85) 15.0.0'
21:27:06.481: pulse-input: Audio format: s32le, 48000 Hz, 2 channels
21:27:06.481: pulse-input: Started recording from 'alsa_output.pci-0000_04_00.6.analog-stereo.monitor' (default)
21:27:06.482: [Loaded global audio device]: 'Áudio do desktop'
21:27:06.482: pulse-input: Server name: 'PulseAudio (on PipeWire 0.3.85) 15.0.0'
21:27:06.482: pulse-input: Audio format: s32le, 48000 Hz, 2 channels
21:27:06.482: pulse-input: Started recording from 'alsa_input.pci-0000_04_00.6.analog-stereo' (default)
21:27:06.482: [Loaded global audio device]: 'Mic/Aux'
21:27:06.483: PipeWire initialized
21:27:06.484: Switched to scene 'Screen Capture'
21:27:06.484: ------------------------------------------------
21:27:06.484: Loaded scenes:
21:27:06.484: - scene 'Screen Capture':
21:27:06.484:     - source: 'Captura de Janela (PipeWire)' (pipewire-window-capture-source)
21:27:06.484: - scene 'Window Capture':
21:27:06.484: ------------------------------------------------
21:27:06.566: [pipewire] Screencast session created
21:27:06.597: [pipewire] Asking for window
21:27:06.602: [pipewire] window selected, setting up screencast
21:27:06.608: [pipewire] Server version: 0.3.85
21:27:06.609: [pipewire] Library version: 0.3.85
21:27:06.609: [pipewire] Header version: 0.3.84
21:27:06.609: [pipewire] Created stream 0x556477bd11c0
21:27:06.609: [pipewire] Stream 0x556477bd11c0 state: "connecting" (error: none)
21:27:06.609: [pipewire] Playing stream 0x556477bd11c0
21:27:06.610: [pipewire] Stream 0x556477bd11c0 state: "paused" (error: none)
21:27:06.616: [pipewire] Negotiated format:
21:27:06.616: [pipewire]     Format: 8 (Spa:Enum:VideoFormat:BGRx)
21:27:06.616: [pipewire]     Modifier: 0x0
21:27:06.616: [pipewire]     Size: 1920x1080
21:27:06.616: [pipewire]     Framerate: 0/1
21:27:06.616: [pipewire] Negotiated format:
21:27:06.616: [pipewire]     Format: 8 (Spa:Enum:VideoFormat:BGRx)
21:27:06.616: [pipewire]     Modifier: 0x20000044051ba01
21:27:06.616: [pipewire]     Size: 1920x1080
21:27:06.616: [pipewire]     Framerate: 0/1
21:27:06.618: [pipewire] Stream 0x556477bd11c0 state: "streaming" (error: none)
21:27:06.625: Cannot create EGLImage: Arguments are inconsistent (for example, a valid context requires buffers not supplied by a valid surface).
21:27:06.625: [pipewire] Renegotiating stream
21:27:06.625: [pipewire] Negotiated format:
21:27:06.625: [pipewire]     Format: 8 (Spa:Enum:VideoFormat:BGRx)
21:27:06.625: [pipewire]     Modifier: 0x20000044051ba01
21:27:06.625: [pipewire]     Size: 1920x1080
21:27:06.625: [pipewire]     Framerate: 0/1
21:27:06.626: [pipewire] Negotiated format:
21:27:06.626: [pipewire]     Format: 8 (Spa:Enum:VideoFormat:BGRx)
21:27:06.626: [pipewire]     Modifier: 0x20000044051b901
21:27:06.626: [pipewire]     Size: 1920x1080
21:27:06.626: [pipewire]     Framerate: 0/1
21:27:06.655: Cannot create EGLImage: Arguments are inconsistent (for example, a valid context requires buffers not supplied by a valid surface).
21:27:06.656: [pipewire] Renegotiating stream
21:27:06.657: [pipewire] Stream 0x556477bd11c0 state: "paused" (error: none)
21:27:06.657: [pipewire] Negotiated format:
21:27:06.657: [pipewire]     Format: 8 (Spa:Enum:VideoFormat:BGRx)
21:27:06.657: [pipewire]     Modifier: 0x20000044051b901
21:27:06.657: [pipewire]     Size: 1920x1080
21:27:06.657: [pipewire]     Framerate: 0/1
21:27:06.658: [pipewire] Negotiated format:
21:27:06.658: [pipewire]     Format: 8 (Spa:Enum:VideoFormat:BGRx)
21:27:06.658: [pipewire]     Modifier: 0x200000440517901
21:27:06.658: [pipewire]     Size: 1920x1080
21:27:06.658: [pipewire]     Framerate: 0/1
21:27:06.660: [pipewire] Stream 0x556477bd11c0 state: "streaming" (error: none)
21:27:06.689: Cannot create EGLImage: Arguments are inconsistent (for example, a valid context requires buffers not supplied by a valid surface).
21:27:06.690: [pipewire] Renegotiating stream
21:27:06.690: [pipewire] Negotiated format:
21:27:06.690: [pipewire]     Format: 8 (Spa:Enum:VideoFormat:BGRx)
21:27:06.690: [pipewire]     Modifier: 0x200000440517901
21:27:06.690: [pipewire]     Size: 1920x1080
21:27:06.690: [pipewire]     Framerate: 0/1
21:27:06.691: [pipewire] Negotiated format:
21:27:06.691: [pipewire]     Format: 8 (Spa:Enum:VideoFormat:BGRx)
21:27:06.691: [pipewire]     Modifier: 0x200000000401a01
21:27:06.691: [pipewire]     Size: 1920x1080
21:27:06.691: [pipewire]     Framerate: 0/1
21:27:07.050: adding 21 milliseconds of audio buffering, total audio buffering is now 21 milliseconds (source: Áudio do desktop)
21:27:07.050: 
21:27:10.056: Creating a popup with a parent, QWidgetWindow(0x5564755ae4e0, name="OBSBasicWindow") which does not match the current topmost grabbing popup, QWidgetWindow(0x556477be0db0, name="QMenuClassWindow") With some shell surface protocols, this is not allowed. The wayland QPA plugin is currently handling it by setting the parent to the topmost grabbing popup. Note, however, that this may cause positioning errors and popups closing unxpectedly. Please fix the transient parent of the popup.
21:27:10.582: Creating a popup with a parent, QWidgetWindow(0x5564755ae4e0, name="OBSBasicWindow") which does not match the current topmost grabbing popup, QWidgetWindow(0x556477be0db0, name="QMenuClassWindow") With some shell surface protocols, this is not allowed. The wayland QPA plugin is currently handling it by setting the parent to the topmost grabbing popup. Note, however, that this may cause positioning errors and popups closing unxpectedly. Please fix the transient parent of the popup.
21:27:12.473: User Removed source 'Captura de Janela (PipeWire)' (pipewire-window-capture-source) from scene 'Screen Capture'
21:27:12.474: [pipewire] Stream 0x556477bd11c0 state: "paused" (error: none)
21:27:12.474: [pipewire] Stream 0x556477bd11c0 state: "unconnected" (error: none)
21:27:17.243: PipeWire initialized
21:27:17.247: User added source 'Captura de tela (PipeWire)' (pipewire-desktop-capture-source) to scene 'Screen Capture'
21:27:17.255: [pipewire] Screencast session created
21:27:20.901: [pipewire] Asking for desktop
21:27:20.920: [pipewire] desktop selected, setting up screencast
21:27:20.928: [pipewire] Server version: 0.3.85
21:27:20.928: [pipewire] Library version: 0.3.85
21:27:20.928: [pipewire] Header version: 0.3.84
21:27:20.928: [pipewire] Created stream 0x556477e33260
21:27:20.928: [pipewire] Stream 0x556477e33260 state: "connecting" (error: none)
21:27:20.928: [pipewire] Playing stream 0x556477e33260
21:27:20.929: [pipewire] Stream 0x556477e33260 state: "paused" (error: none)
21:27:20.932: [pipewire] Negotiated format:
21:27:20.932: [pipewire]     Format: 8 (Spa:Enum:VideoFormat:BGRx)
21:27:20.933: [pipewire]     Modifier: 0x0
21:27:20.933: [pipewire]     Size: 1920x1080
21:27:20.933: [pipewire]     Framerate: 0/1
21:27:20.934: [pipewire] Negotiated format:
21:27:20.934: [pipewire]     Format: 8 (Spa:Enum:VideoFormat:BGRx)
21:27:20.934: [pipewire]     Modifier: 0x20000044051ba01
21:27:20.934: [pipewire]     Size: 1920x1080
21:27:20.934: [pipewire]     Framerate: 0/1
21:27:20.954: [pipewire] Stream 0x556477e33260 state: "streaming" (error: none)
21:27:20.972: Cannot create EGLImage: Arguments are inconsistent (for example, a valid context requires buffers not supplied by a valid surface).
21:27:20.973: [pipewire] Renegotiating stream
21:27:20.973: [pipewire] Negotiated format:
21:27:20.973: [pipewire]     Format: 8 (Spa:Enum:VideoFormat:BGRx)
21:27:20.973: [pipewire]     Modifier: 0x20000044051ba01
21:27:20.973: [pipewire]     Size: 1920x1080
21:27:20.973: [pipewire]     Framerate: 0/1
21:27:20.973: [pipewire] Negotiated format:
21:27:20.973: [pipewire]     Format: 8 (Spa:Enum:VideoFormat:BGRx)
21:27:20.974: [pipewire]     Modifier: 0x20000044051b901
21:27:20.974: [pipewire]     Size: 1920x1080
21:27:20.974: [pipewire]     Framerate: 0/1
21:27:21.005: Cannot create EGLImage: Arguments are inconsistent (for example, a valid context requires buffers not supplied by a valid surface).
21:27:21.005: [pipewire] Renegotiating stream
21:27:21.006: [pipewire] Stream 0x556477e33260 state: "paused" (error: none)
21:27:21.006: [pipewire] Negotiated format:
21:27:21.006: [pipewire]     Format: 8 (Spa:Enum:VideoFormat:BGRx)
21:27:21.006: [pipewire]     Modifier: 0x20000044051b901
21:27:21.006: [pipewire]     Size: 1920x1080
21:27:21.006: [pipewire]     Framerate: 0/1
21:27:21.006: [pipewire] Negotiated format:
21:27:21.006: [pipewire]     Format: 8 (Spa:Enum:VideoFormat:BGRx)
21:27:21.006: [pipewire]     Modifier: 0x200000440517901
21:27:21.007: [pipewire]     Size: 1920x1080
21:27:21.007: [pipewire]     Framerate: 0/1
21:27:21.008: [pipewire] Stream 0x556477e33260 state: "streaming" (error: none)
21:27:21.039: Cannot create EGLImage: Arguments are inconsistent (for example, a valid context requires buffers not supplied by a valid surface).
21:27:21.039: [pipewire] Renegotiating stream
21:27:21.039: [pipewire] Negotiated format:
21:27:21.039: [pipewire]     Format: 8 (Spa:Enum:VideoFormat:BGRx)
21:27:21.040: [pipewire]     Modifier: 0x200000440517901
21:27:21.040: [pipewire]     Size: 1920x1080
21:27:21.040: [pipewire]     Framerate: 0/1
21:27:21.040: [pipewire] Negotiated format:
21:27:21.040: [pipewire]     Format: 8 (Spa:Enum:VideoFormat:BGRx)
21:27:21.040: [pipewire]     Modifier: 0x200000000401a01
21:27:21.040: [pipewire]     Size: 1920x1080
21:27:21.040: [pipewire]     Framerate: 0/1
21:27:24.254: User switched to scene 'Window Capture'
21:27:24.577: [pipewire] Stream 0x556477e33260 state: "paused" (error: none)
21:27:56.829: PipeWire initialized
21:27:56.832: User added source 'Captura de Janela (PipeWire)' (pipewire-window-capture-source) to scene 'Window Capture'
21:27:56.841: [pipewire] Screencast session created
21:28:09.923: [pipewire] Asking for window
21:28:09.942: [pipewire] window selected, setting up screencast
21:28:09.947: [pipewire] Server version: 0.3.85
21:28:09.947: [pipewire] Library version: 0.3.85
21:28:09.947: [pipewire] Header version: 0.3.84
21:28:09.947: [pipewire] Created stream 0x556477c57ed0
21:28:09.947: [pipewire] Stream 0x556477c57ed0 state: "connecting" (error: none)
21:28:09.947: [pipewire] Playing stream 0x556477c57ed0
21:28:09.948: [pipewire] Stream 0x556477c57ed0 state: "paused" (error: none)
21:28:09.951: [pipewire] Negotiated format:
21:28:09.951: [pipewire]     Format: 8 (Spa:Enum:VideoFormat:BGRx)
21:28:09.951: [pipewire]     Modifier: 0x0
21:28:09.951: [pipewire]     Size: 1499x788
21:28:09.951: [pipewire]     Framerate: 0/1
21:28:09.952: [pipewire] Negotiated format:
21:28:09.952: [pipewire]     Format: 8 (Spa:Enum:VideoFormat:BGRx)
21:28:09.952: [pipewire]     Modifier: 0x20000044051ba01
21:28:09.952: [pipewire]     Size: 1499x788
21:28:09.952: [pipewire]     Framerate: 0/1
21:28:09.953: [pipewire] Stream 0x556477c57ed0 state: "streaming" (error: none)
21:28:09.972: Cannot create EGLImage: Arguments are inconsistent (for example, a valid context requires buffers not supplied by a valid surface).
21:28:09.972: [pipewire] Renegotiating stream
21:28:09.972: [pipewire] Negotiated format:
21:28:09.972: [pipewire]     Format: 8 (Spa:Enum:VideoFormat:BGRx)
21:28:09.972: [pipewire]     Modifier: 0x20000044051ba01
21:28:09.972: [pipewire]     Size: 1499x788
21:28:09.972: [pipewire]     Framerate: 0/1
21:28:09.973: [pipewire] Negotiated format:
21:28:09.973: [pipewire]     Format: 8 (Spa:Enum:VideoFormat:BGRx)
21:28:09.973: [pipewire]     Modifier: 0x20000044051b901
21:28:09.973: [pipewire]     Size: 1499x788
21:28:09.973: [pipewire]     Framerate: 0/1
21:28:10.005: Cannot create EGLImage: Arguments are inconsistent (for example, a valid context requires buffers not supplied by a valid surface).
21:28:10.005: [pipewire] Renegotiating stream
21:28:10.006: [pipewire] Stream 0x556477c57ed0 state: "paused" (error: none)
21:28:10.006: [pipewire] Negotiated format:
21:28:10.006: [pipewire]     Format: 8 (Spa:Enum:VideoFormat:BGRx)
21:28:10.006: [pipewire]     Modifier: 0x20000044051b901
21:28:10.006: [pipewire]     Size: 1499x788
21:28:10.006: [pipewire]     Framerate: 0/1
21:28:10.007: [pipewire] Negotiated format:
21:28:10.007: [pipewire]     Format: 8 (Spa:Enum:VideoFormat:BGRx)
21:28:10.007: [pipewire]     Modifier: 0x200000440517901
21:28:10.007: [pipewire]     Size: 1499x788
21:28:10.007: [pipewire]     Framerate: 0/1
21:28:10.027: [pipewire] Stream 0x556477c57ed0 state: "streaming" (error: none)
21:28:10.038: Cannot create EGLImage: Arguments are inconsistent (for example, a valid context requires buffers not supplied by a valid surface).
21:28:10.039: [pipewire] Renegotiating stream
21:28:10.039: [pipewire] Negotiated format:
21:28:10.039: [pipewire]     Format: 8 (Spa:Enum:VideoFormat:BGRx)
21:28:10.039: [pipewire]     Modifier: 0x200000440517901
21:28:10.039: [pipewire]     Size: 1499x788
21:28:10.039: [pipewire]     Framerate: 0/1
21:28:10.040: [pipewire] Negotiated format:
21:28:10.040: [pipewire]     Format: 8 (Spa:Enum:VideoFormat:BGRx)
21:28:10.040: [pipewire]     Modifier: 0x200000000401a01
21:28:10.040: [pipewire]     Size: 1499x788
21:28:10.040: [pipewire]     Framerate: 0/1
21:28:16.178: [pipewire] Stream 0x556477c57ed0 state: "paused" (error: none)
21:28:16.178: [pipewire] Stream 0x556477c57ed0 state: "unconnected" (error: none)
21:28:16.179: PipeWire initialized
21:28:16.182: [pipewire] Screencast session created
21:28:19.014: [pipewire] Asking for window
21:28:19.016: [pipewire] window selected, setting up screencast
21:28:19.020: [pipewire] Server version: 0.3.85
21:28:19.020: [pipewire] Library version: 0.3.85
21:28:19.020: [pipewire] Header version: 0.3.84
21:28:19.020: [pipewire] Created stream 0x556477c57ed0
21:28:19.020: [pipewire] Stream 0x556477c57ed0 state: "connecting" (error: none)
21:28:19.020: [pipewire] Playing stream 0x556477c57ed0
21:28:19.021: [pipewire] Stream 0x556477c57ed0 state: "paused" (error: none)
21:28:19.025: [pipewire] Negotiated format:
21:28:19.025: [pipewire]     Format: 8 (Spa:Enum:VideoFormat:BGRx)
21:28:19.025: [pipewire]     Modifier: 0x0
21:28:19.025: [pipewire]     Size: 1874x985
21:28:19.025: [pipewire]     Framerate: 0/1
21:28:19.026: [pipewire] Negotiated format:
21:28:19.026: [pipewire]     Format: 8 (Spa:Enum:VideoFormat:BGRx)
21:28:19.026: [pipewire]     Modifier: 0x20000044051ba01
21:28:19.026: [pipewire]     Size: 1874x985
21:28:19.026: [pipewire]     Framerate: 0/1
21:28:19.028: [pipewire] Stream 0x556477c57ed0 state: "streaming" (error: none)
21:28:19.038: Cannot create EGLImage: Arguments are inconsistent (for example, a valid context requires buffers not supplied by a valid surface).
21:28:19.038: [pipewire] Renegotiating stream
21:28:19.039: [pipewire] Negotiated format:
21:28:19.039: [pipewire]     Format: 8 (Spa:Enum:VideoFormat:BGRx)
21:28:19.039: [pipewire]     Modifier: 0x20000044051ba01
21:28:19.039: [pipewire]     Size: 1874x985
21:28:19.039: [pipewire]     Framerate: 0/1
21:28:19.039: [pipewire] Negotiated format:
21:28:19.039: [pipewire]     Format: 8 (Spa:Enum:VideoFormat:BGRx)
21:28:19.039: [pipewire]     Modifier: 0x20000044051b901
21:28:19.039: [pipewire]     Size: 1874x985
21:28:19.039: [pipewire]     Framerate: 0/1
21:28:19.071: Cannot create EGLImage: Arguments are inconsistent (for example, a valid context requires buffers not supplied by a valid surface).
21:28:19.071: [pipewire] Renegotiating stream
21:28:19.072: [pipewire] Stream 0x556477c57ed0 state: "paused" (error: none)
21:28:19.072: [pipewire] Negotiated format:
21:28:19.072: [pipewire]     Format: 8 (Spa:Enum:VideoFormat:BGRx)
21:28:19.072: [pipewire]     Modifier: 0x20000044051b901
21:28:19.072: [pipewire]     Size: 1874x985
21:28:19.072: [pipewire]     Framerate: 0/1
21:28:19.073: [pipewire] Negotiated format:
21:28:19.073: [pipewire]     Format: 8 (Spa:Enum:VideoFormat:BGRx)
21:28:19.073: [pipewire]     Modifier: 0x200000440517901
21:28:19.073: [pipewire]     Size: 1874x985
21:28:19.073: [pipewire]     Framerate: 0/1
21:28:19.074: [pipewire] Stream 0x556477c57ed0 state: "streaming" (error: none)
21:28:19.105: Cannot create EGLImage: Arguments are inconsistent (for example, a valid context requires buffers not supplied by a valid surface).
21:28:19.105: [pipewire] Renegotiating stream
21:28:19.105: [pipewire] Negotiated format:
21:28:19.105: [pipewire]     Format: 8 (Spa:Enum:VideoFormat:BGRx)
21:28:19.106: [pipewire]     Modifier: 0x200000440517901
21:28:19.106: [pipewire]     Size: 1874x985
21:28:19.106: [pipewire]     Framerate: 0/1
21:28:19.106: [pipewire] Negotiated format:
21:28:19.106: [pipewire]     Format: 8 (Spa:Enum:VideoFormat:BGRx)
21:28:19.106: [pipewire]     Modifier: 0x200000000401a01
21:28:19.106: [pipewire]     Size: 1874x985
21:28:19.106: [pipewire]     Framerate: 0/1
21:28:21.469: [pipewire] Stream 0x556477c57ed0 state: "paused" (error: none)
21:28:21.469: [pipewire] Stream 0x556477c57ed0 state: "unconnected" (error: none)
21:28:21.469: PipeWire initialized
21:28:21.882: [pipewire] Screencast session created
21:28:30.608: [pipewire] Asking for window
21:28:30.627: [pipewire] window selected, setting up screencast
21:28:30.632: [pipewire] Server version: 0.3.85
21:28:30.632: [pipewire] Library version: 0.3.85
21:28:30.632: [pipewire] Header version: 0.3.84
21:28:30.632: [pipewire] Created stream 0x556477355c60
21:28:30.632: [pipewire] Stream 0x556477355c60 state: "connecting" (error: none)
21:28:30.632: [pipewire] Playing stream 0x556477355c60
21:28:30.633: [pipewire] Stream 0x556477355c60 state: "paused" (error: none)
21:28:30.636: [pipewire] Negotiated format:
21:28:30.636: [pipewire]     Format: 8 (Spa:Enum:VideoFormat:BGRx)
21:28:30.636: [pipewire]     Modifier: 0x0
21:28:30.636: [pipewire]     Size: 1499x788
21:28:30.636: [pipewire]     Framerate: 0/1
21:28:30.638: [pipewire] Negotiated format:
21:28:30.638: [pipewire]     Format: 8 (Spa:Enum:VideoFormat:BGRx)
21:28:30.638: [pipewire]     Modifier: 0x20000044051ba01
21:28:30.638: [pipewire]     Size: 1499x788
21:28:30.638: [pipewire]     Framerate: 0/1
21:28:30.639: [pipewire] Stream 0x556477355c60 state: "streaming" (error: none)
21:28:30.655: Cannot create EGLImage: Arguments are inconsistent (for example, a valid context requires buffers not supplied by a valid surface).
21:28:30.655: [pipewire] Renegotiating stream
21:28:30.656: [pipewire] Negotiated format:
21:28:30.656: [pipewire]     Format: 8 (Spa:Enum:VideoFormat:BGRx)
21:28:30.656: [pipewire]     Modifier: 0x20000044051ba01
21:28:30.656: [pipewire]     Size: 1499x788
21:28:30.656: [pipewire]     Framerate: 0/1
21:28:30.656: [pipewire] Negotiated format:
21:28:30.656: [pipewire]     Format: 8 (Spa:Enum:VideoFormat:BGRx)
21:28:30.656: [pipewire]     Modifier: 0x20000044051b901
21:28:30.656: [pipewire]     Size: 1499x788
21:28:30.656: [pipewire]     Framerate: 0/1
21:28:30.688: Cannot create EGLImage: Arguments are inconsistent (for example, a valid context requires buffers not supplied by a valid surface).
21:28:30.688: [pipewire] Renegotiating stream
21:28:30.689: [pipewire] Stream 0x556477355c60 state: "paused" (error: none)
21:28:30.689: [pipewire] Negotiated format:
21:28:30.689: [pipewire]     Format: 8 (Spa:Enum:VideoFormat:BGRx)
21:28:30.689: [pipewire]     Modifier: 0x20000044051b901
21:28:30.689: [pipewire]     Size: 1499x788
21:28:30.689: [pipewire]     Framerate: 0/1
21:28:30.690: [pipewire] Negotiated format:
21:28:30.690: [pipewire]     Format: 8 (Spa:Enum:VideoFormat:BGRx)
21:28:30.690: [pipewire]     Modifier: 0x200000440517901
21:28:30.690: [pipewire]     Size: 1499x788
21:28:30.690: [pipewire]     Framerate: 0/1
21:28:30.692: [pipewire] Stream 0x556477355c60 state: "streaming" (error: none)
21:28:30.722: Cannot create EGLImage: Arguments are inconsistent (for example, a valid context requires buffers not supplied by a valid surface).
21:28:30.722: [pipewire] Renegotiating stream
21:28:30.722: [pipewire] Negotiated format:
21:28:30.723: [pipewire]     Format: 8 (Spa:Enum:VideoFormat:BGRx)
21:28:30.723: [pipewire]     Modifier: 0x200000440517901
21:28:30.723: [pipewire]     Size: 1499x788
21:28:30.723: [pipewire]     Framerate: 0/1
21:28:30.723: [pipewire] Negotiated format:
21:28:30.723: [pipewire]     Format: 8 (Spa:Enum:VideoFormat:BGRx)
21:28:30.723: [pipewire]     Modifier: 0x200000000401a01
21:28:30.723: [pipewire]     Size: 1499x788
21:28:30.723: [pipewire]     Framerate: 0/1
21:28:34.819: User switched to scene 'Screen Capture'
21:28:34.842: [pipewire] Stream 0x556477e33260 state: "error" (error: no more input formats)
21:28:34.842: [pipewire] Error id:2 seq:61 res:-32 (Erro desconhecido -32): no more input formats
21:28:35.143: [pipewire] Stream 0x556477355c60 state: "paused" (error: none)
21:28:53.906: User switched to scene 'Window Capture'
21:28:53.911: [pipewire] Stream 0x556477355c60 state: "streaming" (error: none)
21:28:57.023: User switched to scene 'Screen Capture'
21:28:57.360: [pipewire] Stream 0x556477355c60 state: "paused" (error: none)
21:29:13.144: Saved screenshot to '/home/fleurc/Screenshot 2023-11-23 21-29-13.png'
21:29:19.457: Creating a popup with a parent, QWidgetWindow(0x5564755ae4e0, name="OBSBasicWindow") which does not match the current topmost grabbing popup, QWidgetWindow(0x556477cc21b0, name="QMenuClassWindow") With some shell surface protocols, this is not allowed. The wayland QPA plugin is currently handling it by setting the parent to the topmost grabbing popup. Note, however, that this may cause positioning errors and popups closing unxpectedly. Please fix the transient parent of the popup.
21:29:23.906: User Removed source 'Captura de tela (PipeWire)' (pipewire-desktop-capture-source) from scene 'Screen Capture'
21:29:23.907: [pipewire] Stream 0x556477e33260 state: "unconnected" (error: none)
21:29:29.300: User switched to scene 'Window Capture'
21:29:29.311: [pipewire] Stream 0x556477355c60 state: "streaming" (error: none)
21:29:33.446: User Removed source 'Captura de Janela (PipeWire)' (pipewire-window-capture-source) from scene 'Window Capture'
21:29:33.446: [pipewire] Stream 0x556477355c60 state: "paused" (error: none)
21:29:33.446: [pipewire] Stream 0x556477355c60 state: "unconnected" (error: none)
21:29:34.650: User switched to scene 'Screen Capture'
21:29:40.184: User added source 'Wayland output(scpy)' (wlrobs-scpy) to scene 'Screen Capture'
21:29:50.484: User switched to scene 'Window Capture'
21:30:04.408: PipeWire initialized
21:30:04.411: User added source 'Captura de Janela (PipeWire)' (pipewire-window-capture-source) to scene 'Window Capture'
21:30:04.420: [pipewire] Screencast session created
21:30:08.750: [pipewire] Asking for window
21:30:08.753: [pipewire] window selected, setting up screencast
21:30:08.760: [pipewire] Server version: 0.3.85
21:30:08.760: [pipewire] Library version: 0.3.85
21:30:08.760: [pipewire] Header version: 0.3.84
21:30:08.760: [pipewire] Created stream 0x55647730ef70
21:30:08.760: [pipewire] Stream 0x55647730ef70 state: "connecting" (error: none)
21:30:08.760: [pipewire] Playing stream 0x55647730ef70
21:30:08.761: [pipewire] Stream 0x55647730ef70 state: "paused" (error: none)
21:30:08.765: [pipewire] Negotiated format:
21:30:08.765: [pipewire]     Format: 8 (Spa:Enum:VideoFormat:BGRx)
21:30:08.765: [pipewire]     Modifier: 0x0
21:30:08.765: [pipewire]     Size: 1499x788
21:30:08.765: [pipewire]     Framerate: 0/1
21:30:08.765: [pipewire] Negotiated format:
21:30:08.765: [pipewire]     Format: 8 (Spa:Enum:VideoFormat:BGRx)
21:30:08.765: [pipewire]     Modifier: 0x20000044051ba01
21:30:08.765: [pipewire]     Size: 1499x788
21:30:08.765: [pipewire]     Framerate: 0/1
21:30:08.767: [pipewire] Stream 0x55647730ef70 state: "streaming" (error: none)
21:30:08.769: Cannot create EGLImage: Arguments are inconsistent (for example, a valid context requires buffers not supplied by a valid surface).
21:30:08.769: [pipewire] Renegotiating stream
21:30:08.769: [pipewire] Negotiated format:
21:30:08.769: [pipewire]     Format: 8 (Spa:Enum:VideoFormat:BGRx)
21:30:08.769: [pipewire]     Modifier: 0x20000044051ba01
21:30:08.769: [pipewire]     Size: 1499x788
21:30:08.769: [pipewire]     Framerate: 0/1
21:30:08.769: [pipewire] Negotiated format:
21:30:08.769: [pipewire]     Format: 8 (Spa:Enum:VideoFormat:BGRx)
21:30:08.769: [pipewire]     Modifier: 0x20000044051b901
21:30:08.769: [pipewire]     Size: 1499x788
21:30:08.769: [pipewire]     Framerate: 0/1
21:30:08.803: Cannot create EGLImage: Arguments are inconsistent (for example, a valid context requires buffers not supplied by a valid surface).
21:30:08.803: [pipewire] Renegotiating stream
21:30:08.804: [pipewire] Stream 0x55647730ef70 state: "paused" (error: none)
21:30:08.804: [pipewire] Negotiated format:
21:30:08.804: [pipewire]     Format: 8 (Spa:Enum:VideoFormat:BGRx)
21:30:08.804: [pipewire]     Modifier: 0x20000044051b901
21:30:08.804: [pipewire]     Size: 1499x788
21:30:08.804: [pipewire]     Framerate: 0/1
21:30:08.805: [pipewire] Negotiated format:
21:30:08.805: [pipewire]     Format: 8 (Spa:Enum:VideoFormat:BGRx)
21:30:08.805: [pipewire]     Modifier: 0x200000440517901
21:30:08.805: [pipewire]     Size: 1499x788
21:30:08.805: [pipewire]     Framerate: 0/1
21:30:08.807: [pipewire] Stream 0x55647730ef70 state: "streaming" (error: none)
21:30:08.836: Cannot create EGLImage: Arguments are inconsistent (for example, a valid context requires buffers not supplied by a valid surface).
21:30:08.836: [pipewire] Renegotiating stream
21:30:08.837: [pipewire] Negotiated format:
21:30:08.837: [pipewire]     Format: 8 (Spa:Enum:VideoFormat:BGRx)
21:30:08.837: [pipewire]     Modifier: 0x200000440517901
21:30:08.837: [pipewire]     Size: 1499x788
21:30:08.837: [pipewire]     Framerate: 0/1
21:30:08.838: [pipewire] Negotiated format:
21:30:08.838: [pipewire]     Format: 8 (Spa:Enum:VideoFormat:BGRx)
21:30:08.838: [pipewire]     Modifier: 0x200000000401a01
21:30:08.838: [pipewire]     Size: 1499x788
21:30:08.838: [pipewire]     Framerate: 0/1
21:30:20.951: User switched to scene 'Screen Capture'
21:30:21.283: [pipewire] Stream 0x55647730ef70 state: "paused" (error: none)
21:30:27.448: ---------------------------------
21:30:27.448: [x264 encoder: 'simple_video_recording'] preset: veryfast
21:30:27.449: [x264 encoder: 'simple_video_recording'] profile: high
21:30:27.449: [x264 encoder: 'simple_video_recording'] settings:
21:30:27.449: 	rate_control: CRF
21:30:27.449: 	bitrate:      0
21:30:27.449: 	buffer size:  0
21:30:27.449: 	crf:          21
21:30:27.449: 	fps_num:      60
21:30:27.449: 	fps_den:      1
21:30:27.449: 	width:        1280
21:30:27.449: 	height:       720
21:30:27.449: 	keyint:       250
21:30:27.449: 
21:30:27.455: libfdk_aac encoder created
21:30:27.455: libfdk_aac bitrate: 192, channels: 2
21:30:27.521: ==== Recording Start ===============================================
21:30:27.521: [ffmpeg muxer: 'simple_file_output'] Writing file '/home/fleurc/2023-11-23 21-30-27.mkv'...
21:30:27.554: Failed to inhibit: GDBus.Error:org.freedesktop.DBus.Error.UnknownMethod: Nenhuma interface “org.freedesktop.portal.Inhibit” no objeto no caminho /org/freedesktop/portal/desktop
21:30:51.424: [ffmpeg muxer: 'simple_file_output'] Output of file '/home/fleurc/2023-11-23 21-30-27.mkv' stopped
21:30:51.424: Output 'simple_file_output': stopping
21:30:51.424: Output 'simple_file_output': Total frames output: 1398
21:30:51.424: Output 'simple_file_output': Total drawn frames: 1043 (1434 attempted)
21:30:51.424: Output 'simple_file_output': Number of lagged frames due to rendering lag/stalls: 391 (27.3%)
21:30:51.447: ==== Recording Stop ================================================
21:30:51.480: libfdk_aac encoder destroyed
21:30:56.188:   OpenType support missing for "Open Sans", script 11
21:30:56.201:   OpenType support missing for "Droid Sans", script 11
21:30:56.223:   OpenType support missing for "Open Sans", script 12
21:30:56.245:   OpenType support missing for "Open Sans", script 16
21:30:56.257:   OpenType support missing for "Droid Sans", script 16
21:30:56.257:   OpenType support missing for "Noto Sans", script 16
21:30:56.260:   OpenType support missing for "DejaVu Sans", script 16
21:30:56.293:   OpenType support missing for "Open Sans", script 20
21:31:27.746: Settings changed (outputs)
21:31:27.746: ------------------------------------------------
21:31:34.617: ==== Shutting down ==================================================
21:31:34.681: [pipewire] Stream 0x55647730ef70 state: "unconnected" (error: none)
21:31:34.682: pulse-input: Stopped recording from 'alsa_output.pci-0000_04_00.6.analog-stereo.monitor'
21:31:34.682: pulse-input: Got 10728 packets with 12873600 frames
21:31:34.682: pulse-input: Stopped recording from 'alsa_input.pci-0000_04_00.6.analog-stereo'
21:31:34.682: pulse-input: Got 10726 packets with 12871200 frames
21:31:34.700: All scene data cleared
21:31:34.700: ------------------------------------------------
21:31:34.748: [Scripting] Total detached callbacks: 0
21:31:34.748: Freeing OBS context data
21:31:34.771: == Profiler Results =============================
21:31:34.771: run_program_init: 4702.6 ms
21:31:34.771:  ┣OBSApp::AppInit: 4.595 ms
21:31:34.771:  ┃ ┗OBSApp::InitLocale: 1.176 ms
21:31:34.771:  ┗OBSApp::OBSInit: 658.447 ms
21:31:34.771:    ┣obs_startup: 2.403 ms
21:31:34.771:    ┗OBSBasic::OBSInit: 636.756 ms
21:31:34.771:      ┣OBSBasic::InitBasicConfig: 0.106 ms
21:31:34.771:      ┣OBSBasic::ResetAudio: 0.374 ms
21:31:34.771:      ┣OBSBasic::ResetVideo: 57.09 ms
21:31:34.771:      ┃ ┗obs_init_graphics: 49.392 ms
21:31:34.771:      ┃   ┗shader compilation: 29.168 ms
21:31:34.771:      ┣OBSBasic::InitOBSCallbacks: 0.014 ms
21:31:34.771:      ┣OBSBasic::InitHotkeys: 0.072 ms
21:31:34.771:      ┣obs_load_all_modules2: 464.995 ms
21:31:34.771:      ┃ ┣obs_init_module(decklink-captions.so): 0.002 ms
21:31:34.771:      ┃ ┣obs_init_module(decklink-output-ui.so): 0.002 ms
21:31:34.771:      ┃ ┣obs_init_module(decklink.so): 0.294 ms
21:31:34.771:      ┃ ┣obs_init_module(frontend-tools.so): 94.753 ms
21:31:34.771:      ┃ ┣obs_init_module(image-source.so): 0.025 ms
21:31:34.771:      ┃ ┣obs_init_module(linux-alsa.so): 0.007 ms
21:31:34.771:      ┃ ┣obs_init_module(linux-capture.so): 0.002 ms
21:31:34.771:      ┃ ┣obs_init_module(linux-jack.so): 0.004 ms
21:31:34.771:      ┃ ┣obs_init_module(linux-pipewire.so): 18.697 ms
21:31:34.771:      ┃ ┣obs_init_module(linux-pulseaudio.so): 0.011 ms
21:31:34.771:      ┃ ┣obs_init_module(linux-v4l2.so): 8.407 ms
21:31:34.771:      ┃ ┣obs_init_module(obs-ffmpeg.so): 1.389 ms
21:31:34.771:      ┃ ┃ ┗nvenc_check: 0.861 ms
21:31:34.771:      ┃ ┣obs_init_module(obs-filters.so): 0.04 ms
21:31:34.771:      ┃ ┣obs_init_module(obs-libfdk.so): 0.006 ms
21:31:34.771:      ┃ ┣obs_init_module(obs-outputs.so): 0.006 ms
21:31:34.771:      ┃ ┣obs_init_module(obs-qsv11.so): 0.21 ms
21:31:34.771:      ┃ ┣obs_init_module(obs-transitions.so): 0.012 ms
21:31:34.771:      ┃ ┣obs_init_module(obs-vst.so): 0.01 ms
21:31:34.771:      ┃ ┣obs_init_module(obs-x264.so): 0.007 ms
21:31:34.772:      ┃ ┣obs_init_module(rtmp-services.so): 1.214 ms
21:31:34.772:      ┃ ┣obs_init_module(text-freetype2.so): 0.028 ms
21:31:34.772:      ┃ ┗obs_init_module(wlrobs.so): 0.039 ms
21:31:34.772:      ┣OBSBasic::InitService: 1.22 ms
21:31:34.772:      ┣OBSBasic::ResetOutputs: 0.177 ms
21:31:34.772:      ┣OBSBasic::CreateHotkeys: 0.038 ms
21:31:34.772:      ┣OBSBasic::InitPrimitives: 0.077 ms
21:31:34.772:      ┗OBSBasic::Load: 40.519 ms
21:31:34.772: obs_hotkey_thread(25 ms): min=0 ms, median=0.002 ms, max=0.053 ms, 99th percentile=0.004 ms, 100% below 25 ms
21:31:34.772: audio_thread(Audio): min=0.015 ms, median=0.077 ms, max=39.7 ms, 99th percentile=29.429 ms
21:31:34.772:  ┗receive_audio: min=0.004 ms, median=0.601 ms, max=7.553 ms, 99th percentile=1.255 ms, 0.089358 calls per parent call
21:31:34.772:    ┣buffer_audio: min=0.001 ms, median=0.002 ms, max=0.021 ms, 99th percentile=0.005 ms
21:31:34.772:    ┗do_encode: min=0.151 ms, median=0.592 ms, max=7.54 ms, 99th percentile=1.24 ms
21:31:34.772:      ┣encode(simple_aac_recording0): min=0.14 ms, median=0.554 ms, max=1.725 ms, 99th percentile=1.163 ms
21:31:34.772:      ┗send_packet: min=0.001 ms, median=0.015 ms, max=6.789 ms, 99th percentile=0.132 ms
21:31:34.772: obs_graphics_thread(16.6667 ms): min=0.274 ms, median=1.07 ms, max=68.339 ms, 99th percentile=34.455 ms, 81.2058% below 16.667 ms
21:31:34.772:  ┣tick_sources: min=0.002 ms, median=0.013 ms, max=25.22 ms, 99th percentile=0.025 ms
21:31:34.772:  ┣output_frame: min=0.14 ms, median=0.445 ms, max=48.394 ms, 99th percentile=33.552 ms
21:31:34.772:  ┃ ┣gs_context(video->graphics): min=0.138 ms, median=0.441 ms, max=48.226 ms, 99th percentile=33.525 ms
21:31:34.772:  ┃ ┃ ┣render_video: min=0.014 ms, median=0.102 ms, max=48.059 ms, 99th percentile=33.236 ms
21:31:34.772:  ┃ ┃ ┃ ┣render_main_texture: min=0.009 ms, median=0.094 ms, max=47.984 ms, 99th percentile=33.219 ms
21:31:34.772:  ┃ ┃ ┃ ┣render_output_texture: min=0.028 ms, median=0.038 ms, max=0.355 ms, 99th percentile=0.118 ms, 0.0703183 calls per parent call
21:31:34.772:  ┃ ┃ ┃ ┣render_convert_texture: min=0.019 ms, median=0.026 ms, max=0.465 ms, 99th percentile=0.072 ms, 0.0703183 calls per parent call
21:31:34.772:  ┃ ┃ ┃ ┗stage_output_texture: min=0.012 ms, median=0.016 ms, max=0.056 ms, 99th percentile=0.038 ms, 0.0703183 calls per parent call
21:31:34.772:  ┃ ┃ ┣gs_flush: min=0.005 ms, median=0.271 ms, max=1.311 ms, 99th percentile=0.642 ms
21:31:34.772:  ┃ ┃ ┗download_frame: min=0.001 ms, median=0.037 ms, max=0.129 ms, 99th percentile=0.085 ms, 0.0703183 calls per parent call
21:31:34.772:  ┃ ┗output_video_data: min=0.12 ms, median=0.152 ms, max=1.089 ms, 99th percentile=0.557 ms, 0.070251 calls per parent call
21:31:34.772:  ┗render_displays: min=0.005 ms, median=0.428 ms, max=35.042 ms, 99th percentile=1.364 ms
21:31:34.772: video_thread(video): min=0.003 ms, median=1.414 ms, max=7.788 ms, 99th percentile=4.429 ms
21:31:34.772:  ┗receive_video: min=0.59 ms, median=1.266 ms, max=7.082 ms, 99th percentile=2.545 ms, 1.37548 calls per parent call
21:31:34.772:    ┗do_encode: min=0.586 ms, median=1.261 ms, max=7.078 ms, 99th percentile=2.54 ms
21:31:34.772:      ┣encode(simple_video_recording): min=0.575 ms, median=1.231 ms, max=3.937 ms, 99th percentile=2.5 ms
21:31:34.772:      ┗send_packet: min=0.003 ms, median=0.014 ms, max=5.76 ms, 99th percentile=0.092 ms
21:31:34.772: OBSBasic::ResetOutputs: 0.194 ms
21:31:34.772: =================================================
21:31:34.772: == Profiler Time Between Calls ==================
21:31:34.772: obs_hotkey_thread(25 ms): min=25.022 ms, median=25.107 ms, max=29.526 ms, 99.4673% within ±2% of 25 ms (0% lower, 0.53266% higher)
21:31:34.772: obs_graphics_thread(16.6667 ms): min=7.512 ms, median=16.669 ms, max=68.357 ms, 75.6595% within ±2% of 16.667 ms (6.22476% lower, 18.1157% higher)
21:31:34.772: =================================================
21:31:34.804: Number of memory leaks: 0
