20:40:30.363: Using EGL/X11
20:40:30.363: CPU Name: AMD Ryzen 7 4800HS with Radeon Graphics
20:40:30.363: CPU Speed: 4275.990MHz
20:40:30.364: Physical Cores: 8, Logical Cores: 16
20:40:30.364: Physical Memory: 15405MB Total, 12662MB Free
20:40:30.364: Kernel Version: Linux 6.6.2-zen1-1-zen
20:40:30.364: Distribution: "Arch Linux" Unknown
20:40:30.364: Desktop Environment: Hyprland (hyprland)
20:40:30.364: Session Type: wayland
20:40:30.364: Window System: X11.0, Vendor: The X.Org Foundation, Version: 1.23.2
20:40:30.366: Qt Version: 6.6.0 (runtime), 6.6.0 (compiled)
20:40:30.366: Portable mode: false
20:40:30.487: OBS 30.0.0-1 (linux)
20:40:30.488: ---------------------------------
20:40:30.488: ---------------------------------
20:40:30.489: audio settings reset:
20:40:30.489: 	samples per sec: 48000
20:40:30.489: 	speakers:        2
20:40:30.489: 	max buffering:   960 milliseconds
20:40:30.489: 	buffering type:  dynamically increasing
20:40:30.492: ---------------------------------
20:40:30.492: Initializing OpenGL...
20:40:30.559: Loading up OpenGL on adapter AMD AMD Radeon Graphics (renoir, LLVM 16.0.6, DRM 3.54, 6.6.2-zen1-1-zen)
20:40:30.559: OpenGL loaded successfully, version 4.6 (Core Profile) Mesa 23.2.1-arch1.2, shading language 4.60
20:40:30.675: ---------------------------------
20:40:30.676: video settings reset:
20:40:30.676: 	base resolution:   1920x1080
20:40:30.676: 	output resolution: 1280x720
20:40:30.676: 	downscale filter:  Bicubic
20:40:30.676: 	fps:               30/1
20:40:30.676: 	format:            NV12
20:40:30.676: 	YUV mode:          Rec. 709/Partial
20:40:30.676: NV12 texture support not available
20:40:30.676: P010 texture support not available
20:40:30.684: Audio monitoring device:
20:40:30.684: 	name: Padrão
20:40:30.684: 	id: default
20:40:30.684: ---------------------------------
20:40:30.697: Failed to load 'en-US' text for module: 'decklink-captions.so'
20:40:30.710: Failed to load 'en-US' text for module: 'decklink-output-ui.so'
20:40:30.725: A DeckLink iterator could not be created.  The DeckLink drivers may not be installed
20:40:30.725: Failed to initialize module 'decklink.so'
20:40:30.947: [pipewire] No captures available
20:40:30.986: v4l2loopback not installed, virtual camera disabled
20:40:31.033: VAAPI: Failed to initialize display in vaapi_device_h264_supported
20:40:31.033: FFmpeg VAAPI H264 encoding not supported
20:40:31.033: VAAPI: Failed to initialize display in vaapi_device_hevc_supported
20:40:31.033: FFmpeg VAAPI HEVC encoding not supported
20:40:31.179: ---------------------------------
20:40:31.179:   Loaded Modules:
20:40:31.179:     text-freetype2.so
20:40:31.179:     rtmp-services.so
20:40:31.179:     obs-x264.so
20:40:31.179:     obs-vst.so
20:40:31.180:     obs-transitions.so
20:40:31.180:     obs-qsv11.so
20:40:31.180:     obs-outputs.so
20:40:31.180:     obs-libfdk.so
20:40:31.180:     obs-filters.so
20:40:31.180:     obs-ffmpeg.so
20:40:31.180:     linux-v4l2.so
20:40:31.180:     linux-pulseaudio.so
20:40:31.180:     linux-pipewire.so
20:40:31.180:     linux-jack.so
20:40:31.180:     linux-capture.so
20:40:31.180:     linux-alsa.so
20:40:31.180:     image-source.so
20:40:31.180:     frontend-tools.so
20:40:31.180:     decklink-output-ui.so
20:40:31.180:     decklink-captions.so
20:40:31.180: ---------------------------------
20:40:31.180: ==== Startup complete ===============================================
20:40:31.185: No scene file found, creating default scene
20:40:31.236: All scene data cleared
20:40:31.237: ------------------------------------------------
20:40:31.249: pulse-input: Server name: 'PulseAudio (on PipeWire 0.3.85) 15.0.0'
20:40:31.249: pulse-input: Audio format: s32le, 48000 Hz, 2 channels
20:40:31.249: pulse-input: Started recording from 'alsa_output.pci-0000_04_00.6.analog-stereo.monitor' (default)
20:40:31.250: pulse-input: Server name: 'PulseAudio (on PipeWire 0.3.85) 15.0.0'
20:40:31.250: pulse-input: Audio format: s32le, 48000 Hz, 2 channels
20:40:31.250: pulse-input: Started recording from 'alsa_input.pci-0000_04_00.6.analog-stereo' (default)
20:40:31.251: Switched to scene 'Cena'
20:40:31.251: Failed to glob scene collections
20:40:31.897: adding 42 milliseconds of audio buffering, total audio buffering is now 42 milliseconds (source: Áudio do desktop)
20:40:31.897: 
20:40:32.014: [rtmp-services plugin] Successfully updated file 'services.json' (version 238)
20:40:32.014: [rtmp-services plugin] Successfully updated package (version 238)
20:40:40.388: 
20:40:40.388: ==== Auto-config wizard testing commencing ======

20:40:40.418: Number of remaining views: 1
20:40:40.418: ---------------------------------
20:40:40.418: video settings reset:
20:40:40.418: 	base resolution:   1920x1080
20:40:40.418: 	output resolution: 1920x1080
20:40:40.418: 	downscale filter:  Bicubic
20:40:40.418: 	fps:               60/1
20:40:40.418: 	format:            NV12
20:40:40.418: 	YUV mode:          Rec. 709/Partial
20:40:40.419: NV12 texture support not available
20:40:40.419: P010 texture support not available
20:40:40.421: Output 'null': Tried to use obs_output_set_media on an encoded output
20:40:40.421: ---------------------------------
20:40:40.421: [x264 encoder: 'test_x264'] preset: veryfast
20:40:40.421: [x264 encoder: 'test_x264'] profile: high
20:40:40.421: [x264 encoder: 'test_x264'] settings:
20:40:40.421: 	rate_control: CRF
20:40:40.421: 	bitrate:      0
20:40:40.421: 	buffer size:  0
20:40:40.421: 	crf:          20
20:40:40.421: 	fps_num:      60
20:40:40.421: 	fps_den:      1
20:40:40.421: 	width:        1920
20:40:40.421: 	height:       1080
20:40:40.421: 	keyint:       250
20:40:40.421: 
20:40:40.440: ---------------------------------
20:40:40.440: [FFmpeg aac encoder: 'test_aac'] bitrate: 32, channels: 2, channel_layout: stereo
20:40:40.440: 
20:40:45.442: Output 'null': stopping
20:40:45.442: Output 'null': Total frames output: 253
20:40:45.442: Output 'null': Total drawn frames: 300
20:40:45.498: Video stopped, number of skipped frames due to encoding lag: 23/296 (7.8%)
20:40:45.641: Number of remaining views: 1
20:40:45.641: ---------------------------------
20:40:45.641: video settings reset:
20:40:45.641: 	base resolution:   1920x1080
20:40:45.641: 	output resolution: 1920x1080
20:40:45.641: 	downscale filter:  Bicubic
20:40:45.641: 	fps:               30/1
20:40:45.641: 	format:            NV12
20:40:45.641: 	YUV mode:          Rec. 709/Partial
20:40:45.641: NV12 texture support not available
20:40:45.641: P010 texture support not available
20:40:45.643: Output 'null': Tried to use obs_output_set_media on an encoded output
20:40:45.643: ---------------------------------
20:40:45.643: [x264 encoder: 'test_x264'] preset: veryfast
20:40:45.643: [x264 encoder: 'test_x264'] profile: high
20:40:45.643: [x264 encoder: 'test_x264'] settings:
20:40:45.643: 	rate_control: CRF
20:40:45.643: 	bitrate:      0
20:40:45.643: 	buffer size:  0
20:40:45.643: 	crf:          20
20:40:45.643: 	fps_num:      30
20:40:45.643: 	fps_den:      1
20:40:45.643: 	width:        1920
20:40:45.643: 	height:       1080
20:40:45.643: 	keyint:       250
20:40:45.643: 
20:40:45.668: ---------------------------------
20:40:45.669: [FFmpeg aac encoder: 'test_aac'] bitrate: 32, channels: 2, channel_layout: stereo
20:40:45.669: 
20:40:50.669: Output 'null': stopping
20:40:50.669: Output 'null': Total frames output: 111
20:40:50.669: Output 'null': Total drawn frames: 150
20:40:50.777: Number of remaining views: 1
20:40:50.777: ---------------------------------
20:40:50.777: video settings reset:
20:40:50.777: 	base resolution:   1920x1080
20:40:50.777: 	output resolution: 1280x720
20:40:50.777: 	downscale filter:  Bicubic
20:40:50.777: 	fps:               60/1
20:40:50.777: 	format:            NV12
20:40:50.777: 	YUV mode:          Rec. 709/Partial
20:40:50.777: NV12 texture support not available
20:40:50.777: P010 texture support not available
20:40:50.779: Output 'null': Tried to use obs_output_set_media on an encoded output
20:40:50.779: ---------------------------------
20:40:50.779: [x264 encoder: 'test_x264'] preset: veryfast
20:40:50.779: [x264 encoder: 'test_x264'] profile: high
20:40:50.780: [x264 encoder: 'test_x264'] settings:
20:40:50.780: 	rate_control: CRF
20:40:50.780: 	bitrate:      0
20:40:50.780: 	buffer size:  0
20:40:50.780: 	crf:          20
20:40:50.780: 	fps_num:      60
20:40:50.780: 	fps_den:      1
20:40:50.780: 	width:        1280
20:40:50.780: 	height:       720
20:40:50.780: 	keyint:       250
20:40:50.780: 
20:40:50.790: ---------------------------------
20:40:50.795: [FFmpeg aac encoder: 'test_aac'] bitrate: 32, channels: 2, channel_layout: stereo
20:40:50.795: 
20:40:55.796: Output 'null': stopping
20:40:55.796: Output 'null': Total frames output: 264
20:40:55.796: Output 'null': Total drawn frames: 300
20:40:55.830: Number of remaining views: 1
20:40:55.830: ---------------------------------
20:40:55.830: video settings reset:
20:40:55.830: 	base resolution:   1920x1080
20:40:55.830: 	output resolution: 1280x720
20:40:55.830: 	downscale filter:  Bicubic
20:40:55.830: 	fps:               30/1
20:40:55.830: 	format:            NV12
20:40:55.830: 	YUV mode:          Rec. 709/Partial
20:40:55.830: NV12 texture support not available
20:40:55.830: P010 texture support not available
20:40:55.832: Output 'null': Tried to use obs_output_set_media on an encoded output
20:40:55.832: ---------------------------------
20:40:55.832: [x264 encoder: 'test_x264'] preset: veryfast
20:40:55.832: [x264 encoder: 'test_x264'] profile: high
20:40:55.832: [x264 encoder: 'test_x264'] settings:
20:40:55.832: 	rate_control: CRF
20:40:55.832: 	bitrate:      0
20:40:55.832: 	buffer size:  0
20:40:55.832: 	crf:          20
20:40:55.832: 	fps_num:      30
20:40:55.832: 	fps_den:      1
20:40:55.832: 	width:        1280
20:40:55.832: 	height:       720
20:40:55.832: 	keyint:       250
20:40:55.832: 
20:40:55.839: ---------------------------------
20:40:55.839: [FFmpeg aac encoder: 'test_aac'] bitrate: 32, channels: 2, channel_layout: stereo
20:40:55.839: 
20:41:00.840: Output 'null': stopping
20:41:00.840: Output 'null': Total frames output: 113
20:41:00.840: Output 'null': Total drawn frames: 150
20:41:00.899: Number of remaining views: 1
20:41:00.899: ---------------------------------
20:41:00.899: video settings reset:
20:41:00.899: 	base resolution:   1920x1080
20:41:00.899: 	output resolution: 1280x720
20:41:00.899: 	downscale filter:  Bicubic
20:41:00.899: 	fps:               30/1
20:41:00.899: 	format:            NV12
20:41:00.899: 	YUV mode:          Rec. 709/Partial
20:41:00.899: NV12 texture support not available
20:41:00.899: P010 texture support not available
20:41:06.102: Number of remaining views: 1
20:41:06.102: ---------------------------------
20:41:06.103: video settings reset:
20:41:06.103: 	base resolution:   1920x1080
20:41:06.103: 	output resolution: 1280x720
20:41:06.103: 	downscale filter:  Bicubic
20:41:06.103: 	fps:               60/1
20:41:06.103: 	format:            NV12
20:41:06.103: 	YUV mode:          Rec. 709/Partial
20:41:06.103: NV12 texture support not available
20:41:06.103: P010 texture support not available
20:41:06.106: 
20:41:06.106: ==== Auto-config wizard testing stopping ========

20:41:19.592: xshm-input: Geometry 1920x1080 @ 0,0
20:41:19.595: User added source 'Captura de Tela (XSHM)' (xshm_input) to scene 'Cena'
20:41:47.792: xshm-input: Geometry 1920x1080 @ 0,0
20:41:52.608: xshm-input: Geometry 1920x1080 @ 0,0
20:42:35.784: ==== Shutting down ==================================================
20:42:35.798: pulse-input: Stopped recording from 'alsa_output.pci-0000_04_00.6.analog-stereo.monitor'
20:42:35.798: pulse-input: Got 4976 packets with 5971200 frames
20:42:35.798: pulse-input: Stopped recording from 'alsa_input.pci-0000_04_00.6.analog-stereo'
20:42:35.798: pulse-input: Got 4975 packets with 5970000 frames
20:42:35.825: All scene data cleared
20:42:35.825: ------------------------------------------------
20:42:35.876: [Scripting] Total detached callbacks: 0
20:42:35.876: Freeing OBS context data
20:42:35.904: == Profiler Results =============================
20:42:35.904: run_program_init: 1037.17 ms
20:42:35.904:  ┣OBSApp::AppInit: 10.024 ms
20:42:35.904:  ┃ ┗OBSApp::InitLocale: 4.256 ms
20:42:35.905:  ┗OBSApp::OBSInit: 957.182 ms
20:42:35.905:    ┣obs_startup: 3.114 ms
20:42:35.905:    ┗OBSBasic::OBSInit: 832.316 ms
20:42:35.905:      ┣OBSBasic::InitBasicConfig: 0.497 ms
20:42:35.905:      ┣OBSBasic::ResetAudio: 0.558 ms
20:42:35.905:      ┣OBSBasic::ResetVideo: 195.207 ms
20:42:35.905:      ┃ ┗obs_init_graphics: 186.482 ms
20:42:35.905:      ┃   ┗shader compilation: 115.116 ms
20:42:35.905:      ┣OBSBasic::InitOBSCallbacks: 0.007 ms
20:42:35.905:      ┣OBSBasic::InitHotkeys: 0.057 ms
20:42:35.905:      ┣obs_load_all_modules2: 495.006 ms
20:42:35.905:      ┃ ┣obs_init_module(decklink-captions.so): 0 ms
20:42:35.905:      ┃ ┣obs_init_module(decklink-output-ui.so): 0 ms
20:42:35.905:      ┃ ┣obs_init_module(decklink.so): 0.3 ms
20:42:35.905:      ┃ ┣obs_init_module(frontend-tools.so): 97.474 ms
20:42:35.905:      ┃ ┣obs_init_module(image-source.so): 0.014 ms
20:42:35.905:      ┃ ┣obs_init_module(linux-alsa.so): 0.005 ms
20:42:35.905:      ┃ ┣obs_init_module(linux-capture.so): 0.601 ms
20:42:35.905:      ┃ ┣obs_init_module(linux-jack.so): 0.008 ms
20:42:35.905:      ┃ ┣obs_init_module(linux-pipewire.so): 18.771 ms
20:42:35.905:      ┃ ┣obs_init_module(linux-pulseaudio.so): 0.004 ms
20:42:35.905:      ┃ ┣obs_init_module(linux-v4l2.so): 5.953 ms
20:42:35.905:      ┃ ┣obs_init_module(obs-ffmpeg.so): 1.694 ms
20:42:35.905:      ┃ ┃ ┗nvenc_check: 0.851 ms
20:42:35.905:      ┃ ┣obs_init_module(obs-filters.so): 0.053 ms
20:42:35.905:      ┃ ┣obs_init_module(obs-libfdk.so): 0.002 ms
20:42:35.905:      ┃ ┣obs_init_module(obs-outputs.so): 0.008 ms
20:42:35.905:      ┃ ┣obs_init_module(obs-qsv11.so): 0.337 ms
20:42:35.905:      ┃ ┣obs_init_module(obs-transitions.so): 0.009 ms
20:42:35.905:      ┃ ┣obs_init_module(obs-vst.so): 0.007 ms
20:42:35.905:      ┃ ┣obs_init_module(obs-x264.so): 0.008 ms
20:42:35.905:      ┃ ┣obs_init_module(rtmp-services.so): 0.542 ms
20:42:35.905:      ┃ ┗obs_init_module(text-freetype2.so): 0.081 ms
20:42:35.905:      ┣OBSBasic::InitService: 1.733 ms
20:42:35.905:      ┣OBSBasic::ResetOutputs: 0.19 ms
20:42:35.905:      ┣OBSBasic::CreateHotkeys: 0.029 ms
20:42:35.905:      ┣OBSBasic::InitPrimitives: 0.12 ms
20:42:35.905:      ┗OBSBasic::Load: 65.769 ms
20:42:35.905: obs_hotkey_thread(25 ms): min=0.053 ms, median=0.25 ms, max=2.988 ms, 99th percentile=1.338 ms, 100% below 25 ms
20:42:35.905: audio_thread(Audio): min=0.01 ms, median=0.081 ms, max=2.087 ms, 99th percentile=0.381 ms
20:42:35.905:  ┗receive_audio: min=0.004 ms, median=0.175 ms, max=1.982 ms, 99th percentile=0.539 ms, 0.162158 calls per parent call
20:42:35.905:    ┣buffer_audio: min=0.001 ms, median=0.001 ms, max=0.049 ms, 99th percentile=0.007 ms
20:42:35.905:    ┗do_encode: min=0.019 ms, median=0.17 ms, max=1.974 ms, 99th percentile=0.533 ms
20:42:35.905:      ┣encode(test_aac): min=0.019 ms, median=0.166 ms, max=0.841 ms, 99th percentile=0.516 ms
20:42:35.905:      ┗send_packet: min=0.001 ms, median=0.003 ms, max=1.758 ms, 99th percentile=0.008 ms
20:42:35.905: obs_graphics_thread(33.3333 ms): min=0.298 ms, median=1.228 ms, max=29.675 ms, 99th percentile=5.393 ms, 100% below 33.333 ms
20:42:35.905:  ┣tick_sources: min=0.001 ms, median=0.009 ms, max=0.036 ms, 99th percentile=0.028 ms
20:42:35.905:  ┣output_frame: min=0.14 ms, median=0.338 ms, max=7.014 ms, 99th percentile=0.927 ms
20:42:35.905:  ┃ ┗gs_context(video->graphics): min=0.138 ms, median=0.337 ms, max=6.998 ms, 99th percentile=0.924 ms
20:42:35.905:  ┃   ┣render_video: min=0.022 ms, median=0.044 ms, max=0.173 ms, 99th percentile=0.138 ms
20:42:35.905:  ┃   ┃ ┗render_main_texture: min=0.019 ms, median=0.037 ms, max=0.13 ms, 99th percentile=0.108 ms
20:42:35.905:  ┃   ┗gs_flush: min=0.002 ms, median=0.006 ms, max=0.027 ms, 99th percentile=0.018 ms
20:42:35.905:  ┗render_displays: min=0.004 ms, median=0.869 ms, max=29.169 ms, 99th percentile=1.275 ms
20:42:35.905: obs_graphics_thread(16.6667 ms): min=0.753 ms, median=2.451 ms, max=22.937 ms, 99th percentile=6.628 ms, 99.6805% below 16.667 ms
20:42:35.905:  ┣tick_sources: min=0.005 ms, median=0.009 ms, max=0.035 ms, 99th percentile=0.023 ms
20:42:35.905:  ┣output_frame: min=0.28 ms, median=1.048 ms, max=22.11 ms, 99th percentile=5.809 ms
20:42:35.905:  ┃ ┣gs_context(video->graphics): min=0.203 ms, median=0.448 ms, max=22.109 ms, 99th percentile=2.664 ms
20:42:35.905:  ┃ ┃ ┣render_video: min=0.062 ms, median=0.175 ms, max=13.072 ms, 99th percentile=0.324 ms
20:42:35.905:  ┃ ┃ ┃ ┣render_main_texture: min=0.026 ms, median=0.093 ms, max=2.161 ms, 99th percentile=0.183 ms
20:42:35.906:  ┃ ┃ ┃ ┣render_convert_texture: min=0.022 ms, median=0.052 ms, max=12.694 ms, 99th percentile=0.089 ms
20:42:35.906:  ┃ ┃ ┃ ┗stage_output_texture: min=0.013 ms, median=0.023 ms, max=0.276 ms, 99th percentile=0.057 ms
20:42:35.906:  ┃ ┃ ┣gs_flush: min=0.003 ms, median=0.006 ms, max=0.804 ms, 99th percentile=0.035 ms
20:42:35.906:  ┃ ┃ ┗download_frame: min=0 ms, median=0.068 ms, max=1.555 ms, 99th percentile=0.136 ms
20:42:35.906:  ┃ ┗output_video_data: min=0 ms, median=0.555 ms, max=5.605 ms, 99th percentile=3.099 ms
20:42:35.906:  ┗render_displays: min=0.374 ms, median=1.017 ms, max=3.647 ms, 99th percentile=3.021 ms
20:42:35.906: video_thread(video): min=0 ms, median=17.544 ms, max=57.109 ms, 99th percentile=53.481 ms
20:42:35.906:  ┗receive_video: min=1.876 ms, median=17.548 ms, max=39.049 ms, 99th percentile=32.985 ms, 1.07246 calls per parent call
20:42:35.906:    ┗do_encode: min=1.875 ms, median=17.547 ms, max=39.048 ms, 99th percentile=32.984 ms
20:42:35.906:      ┣encode(test_x264): min=1.81 ms, median=17.443 ms, max=38.958 ms, 99th percentile=32.902 ms
20:42:35.906:      ┗send_packet: min=0.002 ms, median=0.077 ms, max=1.294 ms, 99th percentile=0.908 ms, 0.861486 calls per parent call
20:42:35.906: obs_graphics_thread(33.3333 ms): min=0.764 ms, median=1.793 ms, max=4.096 ms, 99th percentile=3.78 ms, 100% below 33.333 ms
20:42:35.906:  ┣tick_sources: min=0.005 ms, median=0.008 ms, max=0.02 ms, 99th percentile=0.014 ms
20:42:35.906:  ┣output_frame: min=0.267 ms, median=0.842 ms, max=2.882 ms, 99th percentile=2.739 ms
20:42:35.906:  ┃ ┣gs_context(video->graphics): min=0.266 ms, median=0.433 ms, max=1.03 ms, 99th percentile=0.901 ms
20:42:35.906:  ┃ ┃ ┣render_video: min=0.074 ms, median=0.157 ms, max=0.266 ms, 99th percentile=0.264 ms
20:42:35.906:  ┃ ┃ ┃ ┣render_main_texture: min=0.058 ms, median=0.081 ms, max=0.143 ms, 99th percentile=0.139 ms
20:42:35.906:  ┃ ┃ ┃ ┣render_convert_texture: min=0.029 ms, median=0.049 ms, max=0.117 ms, 99th percentile=0.112 ms
20:42:35.906:  ┃ ┃ ┃ ┗stage_output_texture: min=0.014 ms, median=0.022 ms, max=0.057 ms, 99th percentile=0.053 ms
20:42:35.906:  ┃ ┃ ┣gs_flush: min=0.003 ms, median=0.006 ms, max=0.028 ms, 99th percentile=0.019 ms
20:42:35.906:  ┃ ┃ ┗download_frame: min=0 ms, median=0.062 ms, max=0.134 ms, 99th percentile=0.126 ms
20:42:35.906:  ┃ ┗output_video_data: min=0.349 ms, median=0.417 ms, max=2.25 ms, 99th percentile=2.16 ms
20:42:35.906:  ┗render_displays: min=0.414 ms, median=0.89 ms, max=1.44 ms, 99th percentile=1.393 ms
20:42:35.906: video_thread(video): min=1.696 ms, median=2.347 ms, max=5.25 ms, 99th percentile=4.232 ms
20:42:35.906:  ┗receive_video: min=1.694 ms, median=2.345 ms, max=5.247 ms, 99th percentile=4.23 ms
20:42:35.906:    ┗do_encode: min=1.693 ms, median=2.344 ms, max=5.246 ms, 99th percentile=4.228 ms
20:42:35.906:      ┣encode(test_x264): min=1.575 ms, median=2.242 ms, max=4.39 ms, 99th percentile=4.137 ms
20:42:35.906:      ┗send_packet: min=0.071 ms, median=0.09 ms, max=0.853 ms, 99th percentile=0.176 ms, 0.751678 calls per parent call
20:42:35.906: obs_graphics_thread(16.6667 ms): min=0.599 ms, median=1.552 ms, max=17.641 ms, 99th percentile=2.263 ms, 99.67% below 16.667 ms
20:42:35.906:  ┣tick_sources: min=0.005 ms, median=0.007 ms, max=0.016 ms, 99th percentile=0.014 ms
20:42:35.906:  ┣output_frame: min=0.242 ms, median=0.607 ms, max=16.585 ms, 99th percentile=1.115 ms
20:42:35.906:  ┃ ┣gs_context(video->graphics): min=0.242 ms, median=0.437 ms, max=16.584 ms, 99th percentile=0.819 ms
20:42:35.906:  ┃ ┃ ┣render_video: min=0.077 ms, median=0.173 ms, max=6.196 ms, 99th percentile=0.324 ms
20:42:35.906:  ┃ ┃ ┃ ┣render_main_texture: min=0.049 ms, median=0.076 ms, max=0.158 ms, 99th percentile=0.145 ms
20:42:35.906:  ┃ ┃ ┃ ┣render_output_texture: min=0.025 ms, median=0.039 ms, max=6.043 ms, 99th percentile=0.09 ms
20:42:35.906:  ┃ ┃ ┃ ┣render_convert_texture: min=0.019 ms, median=0.031 ms, max=0.077 ms, 99th percentile=0.064 ms
20:42:35.906:  ┃ ┃ ┃ ┗stage_output_texture: min=0.013 ms, median=0.02 ms, max=0.054 ms, 99th percentile=0.047 ms
20:42:35.906:  ┃ ┃ ┣gs_flush: min=0.002 ms, median=0.005 ms, max=0.034 ms, 99th percentile=0.013 ms
20:42:35.906:  ┃ ┃ ┗download_frame: min=0 ms, median=0.061 ms, max=1.136 ms, 99th percentile=0.136 ms
20:42:35.906:  ┃ ┗output_video_data: min=0.132 ms, median=0.17 ms, max=0.344 ms, 99th percentile=0.27 ms
20:42:35.906:  ┗render_displays: min=0.333 ms, median=0.879 ms, max=1.473 ms, 99th percentile=1.39 ms
20:42:35.906: video_thread(video): min=0.678 ms, median=1.103 ms, max=3.661 ms, 99th percentile=3.401 ms
20:42:35.906:  ┗receive_video: min=0.677 ms, median=1.101 ms, max=3.659 ms, 99th percentile=3.4 ms
20:42:35.906:    ┗do_encode: min=0.675 ms, median=1.099 ms, max=3.658 ms, 99th percentile=3.398 ms
20:42:35.906:      ┣encode(test_x264): min=0.637 ms, median=1.055 ms, max=3.656 ms, 99th percentile=3.397 ms
20:42:35.906:      ┗send_packet: min=0.025 ms, median=0.038 ms, max=0.077 ms, 99th percentile=0.07 ms, 0.882943 calls per parent call
20:42:35.906: obs_graphics_thread(33.3333 ms): min=0.879 ms, median=1.787 ms, max=2.713 ms, 99th percentile=2.68 ms, 100% below 33.333 ms
20:42:35.906:  ┣tick_sources: min=0.006 ms, median=0.007 ms, max=0.016 ms, 99th percentile=0.016 ms
20:42:35.907:  ┣output_frame: min=0.327 ms, median=0.794 ms, max=1.201 ms, 99th percentile=1.184 ms
20:42:35.907:  ┃ ┣gs_context(video->graphics): min=0.327 ms, median=0.602 ms, max=1.011 ms, 99th percentile=0.998 ms
20:42:35.907:  ┃ ┃ ┣render_video: min=0.079 ms, median=0.177 ms, max=0.31 ms, 99th percentile=0.287 ms
20:42:35.907:  ┃ ┃ ┃ ┣render_main_texture: min=0.057 ms, median=0.075 ms, max=0.184 ms, 99th percentile=0.137 ms
20:42:35.907:  ┃ ┃ ┃ ┣render_output_texture: min=0.027 ms, median=0.039 ms, max=0.085 ms, 99th percentile=0.077 ms
20:42:35.907:  ┃ ┃ ┃ ┣render_convert_texture: min=0.019 ms, median=0.031 ms, max=0.074 ms, 99th percentile=0.065 ms
20:42:35.907:  ┃ ┃ ┃ ┗stage_output_texture: min=0.014 ms, median=0.02 ms, max=0.04 ms, 99th percentile=0.038 ms
20:42:35.907:  ┃ ┃ ┣gs_flush: min=0.002 ms, median=0.005 ms, max=0.021 ms, 99th percentile=0.01 ms
20:42:35.907:  ┃ ┃ ┗download_frame: min=0 ms, median=0.062 ms, max=0.114 ms, 99th percentile=0.106 ms
20:42:35.907:  ┃ ┗output_video_data: min=0.121 ms, median=0.173 ms, max=0.361 ms, 99th percentile=0.36 ms
20:42:35.907:  ┗render_displays: min=0.528 ms, median=0.943 ms, max=2.011 ms, 99th percentile=1.638 ms
20:42:35.907: video_thread(video): min=0.776 ms, median=1.303 ms, max=3.781 ms, 99th percentile=3.48 ms
20:42:35.907:  ┗receive_video: min=0.774 ms, median=1.301 ms, max=3.778 ms, 99th percentile=3.477 ms
20:42:35.907:    ┗do_encode: min=0.773 ms, median=1.299 ms, max=3.777 ms, 99th percentile=3.473 ms
20:42:35.907:      ┣encode(test_x264): min=0.772 ms, median=1.234 ms, max=3.775 ms, 99th percentile=3.47 ms
20:42:35.907:      ┗send_packet: min=0.037 ms, median=0.053 ms, max=0.579 ms, 99th percentile=0.507 ms, 0.765101 calls per parent call
20:42:35.907: obs_graphics_thread(33.3333 ms): min=0.415 ms, median=1.338 ms, max=1.901 ms, 99th percentile=1.76 ms, 100% below 33.333 ms
20:42:35.907:  ┣tick_sources: min=0.004 ms, median=0.009 ms, max=0.031 ms, 99th percentile=0.015 ms
20:42:35.907:  ┣output_frame: min=0.131 ms, median=0.32 ms, max=0.854 ms, 99th percentile=0.755 ms
20:42:35.907:  ┃ ┗gs_context(video->graphics): min=0.131 ms, median=0.319 ms, max=0.853 ms, 99th percentile=0.754 ms
20:42:35.907:  ┃   ┣render_video: min=0.019 ms, median=0.045 ms, max=0.075 ms, 99th percentile=0.074 ms
20:42:35.907:  ┃   ┃ ┗render_main_texture: min=0.016 ms, median=0.038 ms, max=0.068 ms, 99th percentile=0.068 ms
20:42:35.907:  ┃   ┗gs_flush: min=0.002 ms, median=0.007 ms, max=0.026 ms, 99th percentile=0.011 ms
20:42:35.907:  ┗render_displays: min=0.262 ms, median=0.982 ms, max=1.196 ms, 99th percentile=1.143 ms
20:42:35.907: OBSBasic::ResetVideo: 32.332 ms
20:42:35.907: obs_graphics_thread(16.6667 ms): min=0.156 ms, median=3.316 ms, max=33.738 ms, 99th percentile=4.672 ms, 99.9628% below 16.667 ms
20:42:35.907:  ┣tick_sources: min=0.001 ms, median=2.346 ms, max=31.02 ms, 99th percentile=3.614 ms
20:42:35.907:  ┣output_frame: min=0.11 ms, median=0.286 ms, max=14.433 ms, 99th percentile=0.553 ms
20:42:35.907:  ┃ ┗gs_context(video->graphics): min=0.11 ms, median=0.286 ms, max=14.432 ms, 99th percentile=0.552 ms
20:42:35.907:  ┃   ┣render_video: min=0.019 ms, median=0.096 ms, max=2.133 ms, 99th percentile=0.191 ms
20:42:35.907:  ┃   ┃ ┗render_main_texture: min=0.015 ms, median=0.092 ms, max=2.127 ms, 99th percentile=0.184 ms
20:42:35.907:  ┃   ┗gs_flush: min=0.001 ms, median=0.004 ms, max=0.041 ms, 99th percentile=0.01 ms
20:42:35.907:  ┗render_displays: min=0.003 ms, median=0.653 ms, max=7.597 ms, 99th percentile=1.408 ms
20:42:35.907: OBSBasic::ResetOutputs: 0.114 ms
20:42:35.907: =================================================
20:42:35.907: == Profiler Time Between Calls ==================
20:42:35.907: obs_hotkey_thread(25 ms): min=25.107 ms, median=25.362 ms, max=29.317 ms, 75.0557% within ±2% of 25 ms (0% lower, 24.9443% higher)
20:42:35.907: obs_graphics_thread(33.3333 ms): min=28.86 ms, median=33.333 ms, max=37.826 ms, 98.6254% within ±2% of 33.333 ms (0.687285% lower, 0.687285% higher)
20:42:35.907: obs_graphics_thread(16.6667 ms): min=10.357 ms, median=16.667 ms, max=22.949 ms, 63.4615% within ±2% of 16.667 ms (18.2692% lower, 18.2692% higher)
20:42:35.907: obs_graphics_thread(33.3333 ms): min=32.922 ms, median=33.333 ms, max=33.581 ms, 100% within ±2% of 33.333 ms (0% lower, 0% higher)
20:42:35.907: obs_graphics_thread(16.6667 ms): min=15.694 ms, median=16.667 ms, max=17.651 ms, 98.6755% within ±2% of 16.667 ms (0.662252% lower, 0.662252% higher)
20:42:35.907: obs_graphics_thread(33.3333 ms): min=32.962 ms, median=33.335 ms, max=33.866 ms, 100% within ±2% of 33.333 ms (0% lower, 0% higher)
20:42:35.907: obs_graphics_thread(33.3333 ms): min=32.948 ms, median=33.334 ms, max=33.72 ms, 100% within ±2% of 33.333 ms (0% lower, 0% higher)
20:42:35.907: obs_graphics_thread(16.6667 ms): min=16.121 ms, median=16.667 ms, max=33.745 ms, 98.2534% within ±2% of 16.667 ms (0.83612% lower, 0.910442% higher)
20:42:35.907: =================================================
20:42:35.928: Number of memory leaks: 0
