21:24:01.420: Platform: Wayland
21:24:01.420: CPU Name: AMD Ryzen 7 4800HS with Radeon Graphics
21:24:01.420: CPU Speed: 1397.077MHz
21:24:01.421: Physical Cores: 8, Logical Cores: 16
21:24:01.421: Physical Memory: 15405MB Total, 12936MB Free
21:24:01.421: Kernel Version: Linux 6.6.2-zen1-1-zen
21:24:01.421: Distribution: "Arch Linux" Unknown
21:24:01.421: Desktop Environment: Hyprland (hyprland)
21:24:01.421: Session Type: wayland
21:24:01.424: Qt Version: 6.6.0 (runtime), 6.6.0 (compiled)
21:24:01.424: Portable mode: false
21:24:01.536: OBS 30.0.0-1 (linux)
21:24:01.536: ---------------------------------
21:24:01.536: ---------------------------------
21:24:01.536: audio settings reset:
21:24:01.536: 	samples per sec: 48000
21:24:01.536: 	speakers:        2
21:24:01.536: 	max buffering:   960 milliseconds
21:24:01.536: 	buffering type:  dynamically increasing
21:24:01.538: ---------------------------------
21:24:01.538: Initializing OpenGL...
21:24:01.538: Using EGL/Wayland
21:24:01.583: Initialized EGL 1.5
21:24:01.601: Loading up OpenGL on adapter AMD AMD Radeon Graphics (renoir, LLVM 16.0.6, DRM 3.54, 6.6.2-zen1-1-zen)
21:24:01.602: OpenGL loaded successfully, version 4.6 (Core Profile) Mesa 23.2.1-arch1.2, shading language 4.60
21:24:01.631: ---------------------------------
21:24:01.631: video settings reset:
21:24:01.631: 	base resolution:   1920x1080
21:24:01.631: 	output resolution: 1280x720
21:24:01.631: 	downscale filter:  Bicubic
21:24:01.631: 	fps:               60/1
21:24:01.631: 	format:            NV12
21:24:01.631: 	YUV mode:          Rec. 709/Partial
21:24:01.631: NV12 texture support not available
21:24:01.631: P010 texture support not available
21:24:01.636: Audio monitoring device:
21:24:01.636: 	name: Padrão
21:24:01.636: 	id: default
21:24:01.637: ---------------------------------
21:24:01.650: Failed to load 'en-US' text for module: 'decklink-captions.so'
21:24:01.664: Failed to load 'en-US' text for module: 'decklink-output-ui.so'
21:24:01.676: A DeckLink iterator could not be created.  The DeckLink drivers may not be installed
21:24:01.676: Failed to initialize module 'decklink.so'
21:24:01.874: [pipewire] Available captures:
21:24:01.874: [pipewire]     - Desktop capture
21:24:01.874: [pipewire]     - Window capture
21:24:01.910: v4l2loopback not installed, virtual camera disabled
21:24:01.936: VAAPI: Failed to initialize display in vaapi_device_h264_supported
21:24:01.936: FFmpeg VAAPI H264 encoding not supported
21:24:01.936: VAAPI: Failed to initialize display in vaapi_device_hevc_supported
21:24:01.936: FFmpeg VAAPI HEVC encoding not supported
21:24:02.081: ---------------------------------
21:24:02.081:   Loaded Modules:
21:24:02.081:     wlrobs.so
21:24:02.081:     text-freetype2.so
21:24:02.081:     rtmp-services.so
21:24:02.081:     obs-x264.so
21:24:02.081:     obs-vst.so
21:24:02.081:     obs-transitions.so
21:24:02.081:     obs-qsv11.so
21:24:02.081:     obs-outputs.so
21:24:02.081:     obs-libfdk.so
21:24:02.081:     obs-filters.so
21:24:02.081:     obs-ffmpeg.so
21:24:02.081:     linux-v4l2.so
21:24:02.081:     linux-pulseaudio.so
21:24:02.081:     linux-pipewire.so
21:24:02.081:     linux-jack.so
21:24:02.081:     linux-capture.so
21:24:02.081:     linux-alsa.so
21:24:02.081:     image-source.so
21:24:02.081:     frontend-tools.so
21:24:02.081:     decklink-output-ui.so
21:24:02.081:     decklink-captions.so
21:24:02.081: ---------------------------------
21:24:02.081: ==== Startup complete ===============================================
21:24:02.117: All scene data cleared
21:24:02.117: ------------------------------------------------
21:24:02.122: pulse-input: Server name: 'PulseAudio (on PipeWire 0.3.85) 15.0.0'
21:24:02.122: pulse-input: Audio format: s32le, 48000 Hz, 2 channels
21:24:02.122: pulse-input: Started recording from 'alsa_output.pci-0000_04_00.6.analog-stereo.monitor' (default)
21:24:02.122: [Loaded global audio device]: 'Áudio do desktop'
21:24:02.123: pulse-input: Server name: 'PulseAudio (on PipeWire 0.3.85) 15.0.0'
21:24:02.123: pulse-input: Audio format: s32le, 48000 Hz, 2 channels
21:24:02.123: pulse-input: Started recording from 'alsa_input.pci-0000_04_00.6.analog-stereo' (default)
21:24:02.123: [Loaded global audio device]: 'Mic/Aux'
21:24:02.124: PipeWire initialized
21:24:02.124: PipeWire initialized
21:24:02.125: Switched to scene 'Window Capture'
21:24:02.125: ------------------------------------------------
21:24:02.125: Loaded scenes:
21:24:02.125: - scene 'Screen Capture':
21:24:02.125:     - source: 'Captura de tela (PipeWire)' (pipewire-desktop-capture-source)
21:24:02.125: - scene 'Window Capture':
21:24:02.125:     - source: 'Captura de Janela (PipeWire)' (pipewire-window-capture-source)
21:24:02.125: ------------------------------------------------
21:24:02.204: [pipewire] Screencast session created
21:24:02.204: [pipewire] Screencast session created
21:24:02.753: adding 21 milliseconds of audio buffering, total audio buffering is now 21 milliseconds (source: Áudio do desktop)
21:24:02.753: 
21:24:08.904: [pipewire] Asking for desktop
21:24:10.104: [pipewire] Asking for window
21:24:10.106: [pipewire] desktop selected, setting up screencast
21:24:10.108: [pipewire] window selected, setting up screencast
21:24:10.112: [pipewire] Server version: 0.3.85
21:24:10.112: [pipewire] Library version: 0.3.85
21:24:10.112: [pipewire] Header version: 0.3.84
21:24:10.113: [pipewire] Created stream 0x5581564e85a0
21:24:10.113: [pipewire] Stream 0x5581564e85a0 state: "connecting" (error: none)
21:24:10.113: [pipewire] Playing stream 0x5581564e85a0
21:24:10.114: [pipewire] Server version: 0.3.85
21:24:10.114: [pipewire] Library version: 0.3.85
21:24:10.114: [pipewire] Header version: 0.3.84
21:24:10.134: [pipewire] Stream 0x5581564e85a0 state: "paused" (error: none)
21:24:10.134: [pipewire] Created stream 0x55815651d9a0
21:24:10.135: [pipewire] Stream 0x55815651d9a0 state: "connecting" (error: none)
21:24:10.135: [pipewire] Playing stream 0x55815651d9a0
21:24:10.136: [pipewire] Negotiated format:
21:24:10.136: [pipewire] Stream 0x55815651d9a0 state: "paused" (error: none)
21:24:10.136: [pipewire]     Format: 8 (Spa:Enum:VideoFormat:BGRx)
21:24:10.136: [pipewire]     Modifier: 0x0
21:24:10.136: [pipewire]     Size: 1920x1080
21:24:10.136: [pipewire]     Framerate: 0/1
21:24:10.136: [pipewire] Negotiated format:
21:24:10.137: [pipewire]     Format: 8 (Spa:Enum:VideoFormat:BGRx)
21:24:10.137: [pipewire]     Modifier: 0x20000044051ba01
21:24:10.137: [pipewire]     Size: 1920x1080
21:24:10.137: [pipewire]     Framerate: 0/1
21:24:10.138: [pipewire] Stream 0x5581564e85a0 state: "streaming" (error: none)
21:24:10.140: Cannot create EGLImage: Arguments are inconsistent (for example, a valid context requires buffers not supplied by a valid surface).
21:24:10.140: [pipewire] Renegotiating stream
21:24:10.140: [pipewire] Negotiated format:
21:24:10.140: [pipewire]     Format: 8 (Spa:Enum:VideoFormat:BGRx)
21:24:10.140: [pipewire]     Modifier: 0x20000044051ba01
21:24:10.140: [pipewire]     Size: 1920x1080
21:24:10.140: [pipewire]     Framerate: 0/1
21:24:10.141: [pipewire] Negotiated format:
21:24:10.141: [pipewire]     Format: 8 (Spa:Enum:VideoFormat:BGRx)
21:24:10.141: [pipewire]     Modifier: 0x20000044051b901
21:24:10.141: [pipewire]     Size: 1920x1080
21:24:10.141: [pipewire]     Framerate: 0/1
21:24:10.142: [pipewire] Negotiated format:
21:24:10.142: [pipewire]     Format: 8 (Spa:Enum:VideoFormat:BGRx)
21:24:10.142: [pipewire]     Modifier: 0x0
21:24:10.142: [pipewire]     Size: 1920x1080
21:24:10.142: [pipewire]     Framerate: 0/1
21:24:10.142: [pipewire] Negotiated format:
21:24:10.142: [pipewire]     Format: 8 (Spa:Enum:VideoFormat:BGRx)
21:24:10.142: [pipewire]     Modifier: 0x20000044051ba01
21:24:10.142: [pipewire]     Size: 1920x1080
21:24:10.142: [pipewire]     Framerate: 0/1
21:24:10.143: [pipewire] Stream 0x55815651d9a0 state: "streaming" (error: none)
21:24:10.157: Cannot create EGLImage: Arguments are inconsistent (for example, a valid context requires buffers not supplied by a valid surface).
21:24:10.157: [pipewire] Renegotiating stream
21:24:10.157: [pipewire] Negotiated format:
21:24:10.158: [pipewire]     Format: 8 (Spa:Enum:VideoFormat:BGRx)
21:24:10.158: [pipewire]     Modifier: 0x20000044051ba01
21:24:10.158: [pipewire]     Size: 1920x1080
21:24:10.158: [pipewire]     Framerate: 0/1
21:24:10.158: [pipewire] Negotiated format:
21:24:10.158: [pipewire]     Format: 8 (Spa:Enum:VideoFormat:BGRx)
21:24:10.159: [pipewire]     Modifier: 0x20000044051b901
21:24:10.159: [pipewire]     Size: 1920x1080
21:24:10.159: [pipewire]     Framerate: 0/1
21:24:10.173: Cannot create EGLImage: Arguments are inconsistent (for example, a valid context requires buffers not supplied by a valid surface).
21:24:10.173: [pipewire] Renegotiating stream
21:24:10.174: [pipewire] Stream 0x5581564e85a0 state: "paused" (error: none)
21:24:10.174: [pipewire] Negotiated format:
21:24:10.174: [pipewire]     Format: 8 (Spa:Enum:VideoFormat:BGRx)
21:24:10.174: [pipewire]     Modifier: 0x20000044051b901
21:24:10.174: [pipewire]     Size: 1920x1080
21:24:10.174: [pipewire]     Framerate: 0/1
21:24:10.175: [pipewire] Negotiated format:
21:24:10.175: [pipewire]     Format: 8 (Spa:Enum:VideoFormat:BGRx)
21:24:10.175: [pipewire]     Modifier: 0x200000440517901
21:24:10.175: [pipewire]     Size: 1920x1080
21:24:10.175: [pipewire]     Framerate: 0/1
21:24:10.176: [pipewire] Stream 0x5581564e85a0 state: "streaming" (error: none)
21:24:10.190: Cannot create EGLImage: Arguments are inconsistent (for example, a valid context requires buffers not supplied by a valid surface).
21:24:10.190: [pipewire] Renegotiating stream
21:24:10.191: [pipewire] Stream 0x55815651d9a0 state: "paused" (error: none)
21:24:10.191: [pipewire] Negotiated format:
21:24:10.191: [pipewire]     Format: 8 (Spa:Enum:VideoFormat:BGRx)
21:24:10.191: [pipewire]     Modifier: 0x20000044051b901
21:24:10.191: [pipewire]     Size: 1920x1080
21:24:10.191: [pipewire]     Framerate: 0/1
21:24:10.192: [pipewire] Negotiated format:
21:24:10.192: [pipewire]     Format: 8 (Spa:Enum:VideoFormat:BGRx)
21:24:10.192: [pipewire]     Modifier: 0x200000440517901
21:24:10.192: [pipewire]     Size: 1920x1080
21:24:10.192: [pipewire]     Framerate: 0/1
21:24:10.193: [pipewire] Stream 0x55815651d9a0 state: "streaming" (error: none)
21:24:10.207: Cannot create EGLImage: Arguments are inconsistent (for example, a valid context requires buffers not supplied by a valid surface).
21:24:10.207: [pipewire] Renegotiating stream
21:24:10.207: [pipewire] Negotiated format:
21:24:10.207: [pipewire]     Format: 8 (Spa:Enum:VideoFormat:BGRx)
21:24:10.207: [pipewire]     Modifier: 0x200000440517901
21:24:10.207: [pipewire]     Size: 1920x1080
21:24:10.207: [pipewire]     Framerate: 0/1
21:24:10.208: [pipewire] Negotiated format:
21:24:10.208: [pipewire]     Format: 8 (Spa:Enum:VideoFormat:BGRx)
21:24:10.208: [pipewire]     Modifier: 0x200000000401a01
21:24:10.208: [pipewire]     Size: 1920x1080
21:24:10.208: [pipewire]     Framerate: 0/1
21:24:10.224: Cannot create EGLImage: Arguments are inconsistent (for example, a valid context requires buffers not supplied by a valid surface).
21:24:10.224: [pipewire] Renegotiating stream
21:24:10.224: [pipewire] Negotiated format:
21:24:10.224: [pipewire]     Format: 8 (Spa:Enum:VideoFormat:BGRx)
21:24:10.224: [pipewire]     Modifier: 0x200000440517901
21:24:10.224: [pipewire]     Size: 1920x1080
21:24:10.224: [pipewire]     Framerate: 0/1
21:24:10.225: [pipewire] Negotiated format:
21:24:10.225: [pipewire]     Format: 8 (Spa:Enum:VideoFormat:BGRx)
21:24:10.225: [pipewire]     Modifier: 0x200000000401a01
21:24:10.225: [pipewire]     Size: 1920x1080
21:24:10.225: [pipewire]     Framerate: 0/1
21:24:11.738: User switched to scene 'Screen Capture'
21:24:12.071: [pipewire] Stream 0x5581564e85a0 state: "paused" (error: none)
21:24:13.501: User switched to scene 'Window Capture'
21:24:13.504: [pipewire] Stream 0x5581564e85a0 state: "streaming" (error: none)
21:24:13.821: [pipewire] Stream 0x55815651d9a0 state: "paused" (error: none)
21:24:36.873: User switched to scene 'Screen Capture'
21:24:36.888: [pipewire] Stream 0x55815651d9a0 state: "streaming" (error: none)
21:24:37.221: [pipewire] Stream 0x5581564e85a0 state: "paused" (error: none)
21:24:37.629: User switched to scene 'Window Capture'
21:24:37.637: [pipewire] Stream 0x5581564e85a0 state: "streaming" (error: none)
21:24:37.954: [pipewire] Stream 0x55815651d9a0 state: "paused" (error: none)
21:24:44.417: [pipewire] Stream 0x5581564e85a0 state: "paused" (error: none)
21:24:44.417: [pipewire] Stream 0x5581564e85a0 state: "unconnected" (error: none)
21:24:44.418: PipeWire initialized
21:24:44.421: [pipewire] Screencast session created
21:24:59.305: [pipewire] Asking for window
21:24:59.308: [pipewire] window selected, setting up screencast
21:24:59.312: [pipewire] Server version: 0.3.85
21:24:59.312: [pipewire] Library version: 0.3.85
21:24:59.312: [pipewire] Header version: 0.3.84
21:24:59.312: [pipewire] Created stream 0x5581564e8480
21:24:59.312: [pipewire] Stream 0x5581564e8480 state: "connecting" (error: none)
21:24:59.312: [pipewire] Playing stream 0x5581564e8480
21:24:59.312: [pipewire] Stream 0x5581564e8480 state: "paused" (error: none)
21:24:59.315: [pipewire] Negotiated format:
21:24:59.315: [pipewire]     Format: 8 (Spa:Enum:VideoFormat:BGRx)
21:24:59.315: [pipewire]     Modifier: 0x0
21:24:59.315: [pipewire]     Size: 1499x788
21:24:59.316: [pipewire]     Framerate: 0/1
21:24:59.316: [pipewire] Negotiated format:
21:24:59.316: [pipewire]     Format: 8 (Spa:Enum:VideoFormat:BGRx)
21:24:59.316: [pipewire]     Modifier: 0x20000044051ba01
21:24:59.316: [pipewire]     Size: 1499x788
21:24:59.316: [pipewire]     Framerate: 0/1
21:24:59.318: [pipewire] Stream 0x5581564e8480 state: "streaming" (error: none)
21:24:59.323: Cannot create EGLImage: Arguments are inconsistent (for example, a valid context requires buffers not supplied by a valid surface).
21:24:59.323: [pipewire] Renegotiating stream
21:24:59.323: [pipewire] Negotiated format:
21:24:59.323: [pipewire]     Format: 8 (Spa:Enum:VideoFormat:BGRx)
21:24:59.324: [pipewire]     Modifier: 0x20000044051ba01
21:24:59.324: [pipewire]     Size: 1499x788
21:24:59.324: [pipewire]     Framerate: 0/1
21:24:59.324: [pipewire] Negotiated format:
21:24:59.324: [pipewire]     Format: 8 (Spa:Enum:VideoFormat:BGRx)
21:24:59.324: [pipewire]     Modifier: 0x20000044051b901
21:24:59.324: [pipewire]     Size: 1499x788
21:24:59.324: [pipewire]     Framerate: 0/1
21:24:59.356: Cannot create EGLImage: Arguments are inconsistent (for example, a valid context requires buffers not supplied by a valid surface).
21:24:59.357: [pipewire] Renegotiating stream
21:24:59.357: [pipewire] Stream 0x5581564e8480 state: "paused" (error: none)
21:24:59.357: [pipewire] Negotiated format:
21:24:59.357: [pipewire]     Format: 8 (Spa:Enum:VideoFormat:BGRx)
21:24:59.357: [pipewire]     Modifier: 0x20000044051b901
21:24:59.357: [pipewire]     Size: 1499x788
21:24:59.357: [pipewire]     Framerate: 0/1
21:24:59.358: [pipewire] Negotiated format:
21:24:59.358: [pipewire]     Format: 8 (Spa:Enum:VideoFormat:BGRx)
21:24:59.358: [pipewire]     Modifier: 0x200000440517901
21:24:59.358: [pipewire]     Size: 1499x788
21:24:59.358: [pipewire]     Framerate: 0/1
21:24:59.359: [pipewire] Stream 0x5581564e8480 state: "streaming" (error: none)
21:24:59.390: Cannot create EGLImage: Arguments are inconsistent (for example, a valid context requires buffers not supplied by a valid surface).
21:24:59.390: [pipewire] Renegotiating stream
21:24:59.390: [pipewire] Negotiated format:
21:24:59.390: [pipewire]     Format: 8 (Spa:Enum:VideoFormat:BGRx)
21:24:59.390: [pipewire]     Modifier: 0x200000440517901
21:24:59.390: [pipewire]     Size: 1499x788
21:24:59.390: [pipewire]     Framerate: 0/1
21:24:59.390: [pipewire] Negotiated format:
21:24:59.390: [pipewire]     Format: 8 (Spa:Enum:VideoFormat:BGRx)
21:24:59.390: [pipewire]     Modifier: 0x200000000401a01
21:24:59.390: [pipewire]     Size: 1499x788
21:24:59.390: [pipewire]     Framerate: 0/1
21:25:16.870: ==== Shutting down ==================================================
21:25:16.874: [pipewire] Stream 0x55815651d9a0 state: "unconnected" (error: none)
21:25:16.875: pulse-input: Stopped recording from 'alsa_output.pci-0000_04_00.6.analog-stereo.monitor'
21:25:16.875: pulse-input: Got 2987 packets with 3584400 frames
21:25:16.876: pulse-input: Stopped recording from 'alsa_input.pci-0000_04_00.6.analog-stereo'
21:25:16.876: pulse-input: Got 2985 packets with 3582000 frames
21:25:16.876: [pipewire] Stream 0x5581564e8480 state: "paused" (error: none)
21:25:16.876: [pipewire] Stream 0x5581564e8480 state: "unconnected" (error: none)
21:25:16.910: All scene data cleared
21:25:16.910: ------------------------------------------------
21:25:16.958: [Scripting] Total detached callbacks: 0
21:25:16.959: Freeing OBS context data
21:25:16.975: == Profiler Results =============================
21:25:16.975: run_program_init: 833.456 ms
21:25:16.975:  ┣OBSApp::AppInit: 4.968 ms
21:25:16.975:  ┃ ┗OBSApp::InitLocale: 1.286 ms
21:25:16.975:  ┗OBSApp::OBSInit: 777.46 ms
21:25:16.975:    ┣obs_startup: 3.836 ms
21:25:16.975:    ┗OBSBasic::OBSInit: 661.394 ms
21:25:16.975:      ┣OBSBasic::InitBasicConfig: 0.152 ms
21:25:16.975:      ┣OBSBasic::ResetAudio: 0.362 ms
21:25:16.976:      ┣OBSBasic::ResetVideo: 99.849 ms
21:25:16.976:      ┃ ┗obs_init_graphics: 94.123 ms
21:25:16.976:      ┃   ┗shader compilation: 28.918 ms
21:25:16.976:      ┣OBSBasic::InitOBSCallbacks: 0.008 ms
21:25:16.976:      ┣OBSBasic::InitHotkeys: 0.049 ms
21:25:16.976:      ┣obs_load_all_modules2: 444.181 ms
21:25:16.976:      ┃ ┣obs_init_module(decklink-captions.so): 0.001 ms
21:25:16.976:      ┃ ┣obs_init_module(decklink-output-ui.so): 0.001 ms
21:25:16.976:      ┃ ┣obs_init_module(decklink.so): 0.266 ms
21:25:16.976:      ┃ ┣obs_init_module(frontend-tools.so): 89.366 ms
21:25:16.976:      ┃ ┣obs_init_module(image-source.so): 0.021 ms
21:25:16.976:      ┃ ┣obs_init_module(linux-alsa.so): 0.006 ms
21:25:16.976:      ┃ ┣obs_init_module(linux-capture.so): 0.003 ms
21:25:16.976:      ┃ ┣obs_init_module(linux-jack.so): 0.004 ms
21:25:16.976:      ┃ ┣obs_init_module(linux-pipewire.so): 18.591 ms
21:25:16.976:      ┃ ┣obs_init_module(linux-pulseaudio.so): 0.005 ms
21:25:16.976:      ┃ ┣obs_init_module(linux-v4l2.so): 7.979 ms
21:25:16.976:      ┃ ┣obs_init_module(obs-ffmpeg.so): 1.401 ms
21:25:16.976:      ┃ ┃ ┗nvenc_check: 0.857 ms
21:25:16.976:      ┃ ┣obs_init_module(obs-filters.so): 0.046 ms
21:25:16.976:      ┃ ┣obs_init_module(obs-libfdk.so): 0.005 ms
21:25:16.976:      ┃ ┣obs_init_module(obs-outputs.so): 0.006 ms
21:25:16.976:      ┃ ┣obs_init_module(obs-qsv11.so): 0.311 ms
21:25:16.976:      ┃ ┣obs_init_module(obs-transitions.so): 0.014 ms
21:25:16.976:      ┃ ┣obs_init_module(obs-vst.so): 0.007 ms
21:25:16.976:      ┃ ┣obs_init_module(obs-x264.so): 0.006 ms
21:25:16.976:      ┃ ┣obs_init_module(rtmp-services.so): 0.838 ms
21:25:16.976:      ┃ ┣obs_init_module(text-freetype2.so): 0.019 ms
21:25:16.976:      ┃ ┗obs_init_module(wlrobs.so): 0.013 ms
21:25:16.976:      ┣OBSBasic::InitService: 1.046 ms
21:25:16.976:      ┣OBSBasic::ResetOutputs: 0.196 ms
21:25:16.976:      ┣OBSBasic::CreateHotkeys: 0.029 ms
21:25:16.976:      ┣OBSBasic::InitPrimitives: 0.103 ms
21:25:16.976:      ┗OBSBasic::Load: 43.553 ms
21:25:16.976: obs_hotkey_thread(25 ms): min=0.001 ms, median=0.002 ms, max=0.054 ms, 99th percentile=0.004 ms, 100% below 25 ms
21:25:16.976: audio_thread(Audio): min=0.008 ms, median=0.069 ms, max=0.59 ms, 99th percentile=0.221 ms
21:25:16.976: obs_graphics_thread(16.6667 ms): min=0.297 ms, median=1.013 ms, max=25.909 ms, 99th percentile=4.364 ms, 99.9557% below 16.667 ms
21:25:16.976:  ┣tick_sources: min=0.002 ms, median=0.013 ms, max=25.315 ms, 99th percentile=0.441 ms
21:25:16.976:  ┣output_frame: min=0.121 ms, median=0.484 ms, max=5.561 ms, 99th percentile=0.797 ms
21:25:16.976:  ┃ ┗gs_context(video->graphics): min=0.118 ms, median=0.48 ms, max=5.538 ms, 99th percentile=0.793 ms
21:25:16.976:  ┃   ┣render_video: min=0.014 ms, median=0.108 ms, max=1.537 ms, 99th percentile=0.214 ms
21:25:16.976:  ┃   ┃ ┗render_main_texture: min=0.011 ms, median=0.099 ms, max=1.526 ms, 99th percentile=0.201 ms
21:25:16.976:  ┃   ┗gs_flush: min=0.003 ms, median=0.33 ms, max=0.878 ms, 99th percentile=0.631 ms
21:25:16.976:  ┗render_displays: min=0.006 ms, median=0.506 ms, max=16.947 ms, 99th percentile=3.289 ms
21:25:16.976: =================================================
21:25:16.976: == Profiler Time Between Calls ==================
21:25:16.976: obs_hotkey_thread(25 ms): min=25.025 ms, median=25.11 ms, max=27.36 ms, 99.0676% within ±2% of 25 ms (0% lower, 0.932401% higher)
21:25:16.976: obs_graphics_thread(16.6667 ms): min=7.414 ms, median=16.667 ms, max=25.919 ms, 97.4319% within ±2% of 16.667 ms (1.28404% lower, 1.28404% higher)
21:25:16.976: =================================================
21:25:16.982: Number of memory leaks: 0
