21:19:47.036: Platform: Wayland
21:19:47.037: CPU Name: AMD Ryzen 7 4800HS with Radeon Graphics
21:19:47.037: CPU Speed: 1397.095MHz
21:19:47.037: Physical Cores: 8, Logical Cores: 16
21:19:47.037: Physical Memory: 15405MB Total, 4325MB Free
21:19:47.037: Kernel Version: Linux 6.6.2-zen1-1-zen
21:19:47.037: Distribution: "Arch Linux" Unknown
21:19:47.037: Desktop Environment: Hyprland (hyprland)
21:19:47.037: Session Type: wayland
21:19:47.039: Qt Version: 6.6.0 (runtime), 6.6.0 (compiled)
21:19:47.040: Portable mode: false
21:19:47.124: OBS 30.0.0-1 (linux)
21:19:47.124: ---------------------------------
21:19:47.125: ---------------------------------
21:19:47.125: audio settings reset:
21:19:47.125: 	samples per sec: 48000
21:19:47.125: 	speakers:        2
21:19:47.125: 	max buffering:   960 milliseconds
21:19:47.125: 	buffering type:  dynamically increasing
21:19:47.126: ---------------------------------
21:19:47.126: Initializing OpenGL...
21:19:47.126: Using EGL/Wayland
21:19:47.162: Initialized EGL 1.5
21:19:47.180: Loading up OpenGL on adapter AMD AMD Radeon Graphics (renoir, LLVM 16.0.6, DRM 3.54, 6.6.2-zen1-1-zen)
21:19:47.180: OpenGL loaded successfully, version 4.6 (Core Profile) Mesa 23.2.1-arch1.2, shading language 4.60
21:19:47.207: ---------------------------------
21:19:47.207: video settings reset:
21:19:47.207: 	base resolution:   1920x1080
21:19:47.207: 	output resolution: 1280x720
21:19:47.207: 	downscale filter:  Bicubic
21:19:47.207: 	fps:               60/1
21:19:47.207: 	format:            NV12
21:19:47.207: 	YUV mode:          Rec. 709/Partial
21:19:47.207: NV12 texture support not available
21:19:47.207: P010 texture support not available
21:19:47.210: Audio monitoring device:
21:19:47.210: 	name: Padrão
21:19:47.210: 	id: default
21:19:47.210: ---------------------------------
21:19:47.222: Failed to load 'en-US' text for module: 'decklink-captions.so'
21:19:47.233: Failed to load 'en-US' text for module: 'decklink-output-ui.so'
21:19:47.243: A DeckLink iterator could not be created.  The DeckLink drivers may not be installed
21:19:47.243: Failed to initialize module 'decklink.so'
21:19:47.405: [pipewire] No captures available
21:19:47.436: v4l2loopback not installed, virtual camera disabled
21:19:47.455: VAAPI: Failed to initialize display in vaapi_device_h264_supported
21:19:47.455: FFmpeg VAAPI H264 encoding not supported
21:19:47.456: VAAPI: Failed to initialize display in vaapi_device_hevc_supported
21:19:47.456: FFmpeg VAAPI HEVC encoding not supported
21:19:47.583: ---------------------------------
21:19:47.583:   Loaded Modules:
21:19:47.583:     wlrobs.so
21:19:47.583:     text-freetype2.so
21:19:47.583:     rtmp-services.so
21:19:47.583:     obs-x264.so
21:19:47.583:     obs-vst.so
21:19:47.583:     obs-transitions.so
21:19:47.583:     obs-qsv11.so
21:19:47.583:     obs-outputs.so
21:19:47.583:     obs-libfdk.so
21:19:47.583:     obs-filters.so
21:19:47.583:     obs-ffmpeg.so
21:19:47.583:     linux-v4l2.so
21:19:47.583:     linux-pulseaudio.so
21:19:47.583:     linux-pipewire.so
21:19:47.583:     linux-jack.so
21:19:47.583:     linux-capture.so
21:19:47.583:     linux-alsa.so
21:19:47.583:     image-source.so
21:19:47.583:     frontend-tools.so
21:19:47.583:     decklink-output-ui.so
21:19:47.583:     decklink-captions.so
21:19:47.583: ---------------------------------
21:19:47.583: ==== Startup complete ===============================================
21:19:47.598: All scene data cleared
21:19:47.598: ------------------------------------------------
21:19:47.603: pulse-input: Server name: 'PulseAudio (on PipeWire 0.3.85) 15.0.0'
21:19:47.603: pulse-input: Audio format: s32le, 48000 Hz, 2 channels
21:19:47.603: pulse-input: Started recording from 'alsa_output.pci-0000_04_00.6.analog-stereo.monitor' (default)
21:19:47.603: [Loaded global audio device]: 'Áudio do desktop'
21:19:47.603: pulse-input: Server name: 'PulseAudio (on PipeWire 0.3.85) 15.0.0'
21:19:47.604: pulse-input: Audio format: s32le, 48000 Hz, 2 channels
21:19:47.604: pulse-input: Started recording from 'alsa_input.pci-0000_04_00.6.analog-stereo' (default)
21:19:47.604: [Loaded global audio device]: 'Mic/Aux'
21:19:47.604: Source ID 'xcomposite_input' not found
21:19:47.604: Failed to create source 'Captura de janela (Xcomposite)'!
21:19:47.605: Switched to scene 'Window Capture'
21:19:47.605: ------------------------------------------------
21:19:47.605: Loaded scenes:
21:19:47.605: - scene 'Screen Capture':
21:19:47.605:     - source: 'Wayland output(scpy)' (wlrobs-scpy)
21:19:47.605: - scene 'Window Capture':
21:19:47.605:     - source: 'Captura de janela (Xcomposite)' (xcomposite_input)
21:19:47.605: ------------------------------------------------
21:19:48.170: adding 21 milliseconds of audio buffering, total audio buffering is now 21 milliseconds (source: Áudio do desktop)
21:19:48.170: 
21:19:54.163: User Removed source 'Captura de janela (Xcomposite)' (xcomposite_input) from scene 'Window Capture'
21:20:12.004: User added source 'Wayland output(scpy) 2' (wlrobs-scpy) to scene 'Window Capture'
21:20:17.296: User switched to scene 'Screen Capture'
21:20:18.112: User switched to scene 'Window Capture'
21:20:21.145: User Removed source 'Wayland output(scpy) 2' (wlrobs-scpy) from scene 'Window Capture'
21:20:22.200: User switched to scene 'Screen Capture'
21:20:33.195: User switched to scene 'Window Capture'
21:20:38.678: ==== Shutting down ==================================================
21:20:38.682: pulse-input: Stopped recording from 'alsa_output.pci-0000_04_00.6.analog-stereo.monitor'
21:20:38.682: pulse-input: Got 2042 packets with 2450400 frames
21:20:38.683: pulse-input: Stopped recording from 'alsa_input.pci-0000_04_00.6.analog-stereo'
21:20:38.683: pulse-input: Got 2042 packets with 2450400 frames
21:20:38.710: All scene data cleared
21:20:38.711: ------------------------------------------------
21:20:38.759: [Scripting] Total detached callbacks: 0
21:20:38.760: Freeing OBS context data
21:20:38.776: == Profiler Results =============================
21:20:38.776: run_program_init: 679.727 ms
21:20:38.776:  ┣OBSApp::AppInit: 4.857 ms
21:20:38.776:  ┃ ┗OBSApp::InitLocale: 1.177 ms
21:20:38.776:  ┗OBSApp::OBSInit: 629.692 ms
21:20:38.776:    ┣obs_startup: 2.93 ms
21:20:38.776:    ┗OBSBasic::OBSInit: 541.664 ms
21:20:38.776:      ┣OBSBasic::InitBasicConfig: 0.087 ms
21:20:38.776:      ┣OBSBasic::ResetAudio: 0.278 ms
21:20:38.776:      ┣OBSBasic::ResetVideo: 85.497 ms
21:20:38.776:      ┃ ┗obs_init_graphics: 82.02 ms
21:20:38.776:      ┃   ┗shader compilation: 26.917 ms
21:20:38.776:      ┣OBSBasic::InitOBSCallbacks: 0.006 ms
21:20:38.776:      ┣OBSBasic::InitHotkeys: 0.028 ms
21:20:38.776:      ┣obs_load_all_modules2: 372.041 ms
21:20:38.776:      ┃ ┣obs_init_module(decklink-captions.so): 0.001 ms
21:20:38.776:      ┃ ┣obs_init_module(decklink-output-ui.so): 0.001 ms
21:20:38.776:      ┃ ┣obs_init_module(decklink.so): 0.18 ms
21:20:38.776:      ┃ ┣obs_init_module(frontend-tools.so): 72.458 ms
21:20:38.776:      ┃ ┣obs_init_module(image-source.so): 0.01 ms
21:20:38.776:      ┃ ┣obs_init_module(linux-alsa.so): 0.011 ms
21:20:38.776:      ┃ ┣obs_init_module(linux-capture.so): 0.001 ms
21:20:38.776:      ┃ ┣obs_init_module(linux-jack.so): 0.004 ms
21:20:38.777:      ┃ ┣obs_init_module(linux-pipewire.so): 17.632 ms
21:20:38.777:      ┃ ┣obs_init_module(linux-pulseaudio.so): 0.015 ms
21:20:38.777:      ┃ ┣obs_init_module(linux-v4l2.so): 5.728 ms
21:20:38.777:      ┃ ┣obs_init_module(obs-ffmpeg.so): 1.295 ms
21:20:38.777:      ┃ ┃ ┗nvenc_check: 0.776 ms
21:20:38.777:      ┃ ┣obs_init_module(obs-filters.so): 0.029 ms
21:20:38.777:      ┃ ┣obs_init_module(obs-libfdk.so): 0.003 ms
21:20:38.777:      ┃ ┣obs_init_module(obs-outputs.so): 0.005 ms
21:20:38.777:      ┃ ┣obs_init_module(obs-qsv11.so): 0.194 ms
21:20:38.777:      ┃ ┣obs_init_module(obs-transitions.so): 0.011 ms
21:20:38.777:      ┃ ┣obs_init_module(obs-vst.so): 0.009 ms
21:20:38.777:      ┃ ┣obs_init_module(obs-x264.so): 0.003 ms
21:20:38.777:      ┃ ┣obs_init_module(rtmp-services.so): 0.705 ms
21:20:38.777:      ┃ ┣obs_init_module(text-freetype2.so): 0.013 ms
21:20:38.777:      ┃ ┗obs_init_module(wlrobs.so): 0.02 ms
21:20:38.777:      ┣OBSBasic::InitService: 1.06 ms
21:20:38.777:      ┣OBSBasic::ResetOutputs: 0.178 ms
21:20:38.777:      ┣OBSBasic::CreateHotkeys: 0.036 ms
21:20:38.777:      ┣OBSBasic::InitPrimitives: 0.067 ms
21:20:38.777:      ┗OBSBasic::Load: 20.96 ms
21:20:38.777: obs_hotkey_thread(25 ms): min=0.001 ms, median=0.002 ms, max=0.046 ms, 99th percentile=0.004 ms, 100% below 25 ms
21:20:38.777: audio_thread(Audio): min=0.009 ms, median=0.085 ms, max=49.027 ms, 99th percentile=27.569 ms
21:20:38.777: obs_graphics_thread(16.6667 ms): min=0.231 ms, median=0.847 ms, max=92.159 ms, 99th percentile=34.989 ms, 78.0547% below 16.667 ms
21:20:38.777:  ┣tick_sources: min=0.001 ms, median=0.012 ms, max=24.398 ms, 99th percentile=0.024 ms
21:20:38.777:  ┣output_frame: min=0.133 ms, median=0.417 ms, max=51.797 ms, 99th percentile=32.931 ms
21:20:38.777:  ┃ ┗gs_context(video->graphics): min=0.13 ms, median=0.411 ms, max=51.794 ms, 99th percentile=32.929 ms
21:20:38.777:  ┃   ┣render_video: min=0.014 ms, median=0.052 ms, max=51.593 ms, 99th percentile=32.743 ms
21:20:38.777:  ┃   ┃ ┗render_main_texture: min=0.01 ms, median=0.041 ms, max=51.59 ms, 99th percentile=32.74 ms
21:20:38.777:  ┃   ┗gs_flush: min=0.002 ms, median=0.007 ms, max=0.045 ms, 99th percentile=0.025 ms
21:20:38.777:  ┗render_displays: min=0.005 ms, median=0.305 ms, max=35.823 ms, 99th percentile=17.851 ms
21:20:38.777: =================================================
21:20:38.777: == Profiler Time Between Calls ==================
21:20:38.777: obs_hotkey_thread(25 ms): min=25.034 ms, median=25.102 ms, max=25.782 ms, 99.5627% within ±2% of 25 ms (0% lower, 0.437318% higher)
21:20:38.777: obs_graphics_thread(16.6667 ms): min=13.301 ms, median=16.669 ms, max=92.172 ms, 68.9751% within ±2% of 16.667 ms (11.392% lower, 19.633% higher)
21:20:38.777: =================================================
21:20:38.786: Number of memory leaks: 0
